﻿id;lastName;firstName;panName;birthDate;email;phone;department;course;group
858761;Шупик;Олег;Григорьевич;25.03.2016 15:19;1@2.ua;3805012345678;Biology;1;5
858765;Колесников;Андрей;;25.03.2016 15:23;1@2.ua;3805012345678;Biology;2;7
858815;Петрик;Виталий;Иванович;25.03.2016 15:49;1@2.ua;3805012345678;Biology;3;4
858929;Тацюк;Виталий;Богданович;27.05.2016 12:06;1@2.ua;3805012345678;Biology;4;6
858988;Лебединец;Руслан;Анатольевич;25.03.2016 18:03;1@2.ua;3805012345678;Biology;5;8
859014;Коваленко;Евгений;;25.03.2016 18:34;1@2.ua;3805012345678;Biology;1;5
859027;Шоробура;Александр;;02.06.2020 12:10;1@2.ua;3805012345678;Biology;2;7
859042;Мадий;Николай;Иванович;25.03.2016 18:58;1@2.ua;3805012345678;Biology;3;4
859052;Айнзер;Максим;;25.03.2016 19:15;1@2.ua;3805012345678;Biology;4;6
859337;Горбань;Михаил;Иванович;26.03.2016 13:15;1@2.ua;3805012345678;Biology;5;8
859368;Ткаченко;Сергей;;26.03.2016 11:26;1@2.ua;3805012345678;Biology;1;5
859395;Калинкин;Илья;Андреевич;26.03.2016 11:38;1@2.ua;3805012345678;Biology;2;7
859411;Чепа;Иван;Иванович;26.03.2016 11:51;1@2.ua;3805012345678;Biology;3;4
859427;Зубков;Эдуард;Анатольевич;26.03.2016 12:08;1@2.ua;3805012345678;Biology;4;6
859446;Шпиндицкий;Игорь;;26.03.2016 12:27;1@2.ua;3805012345678;Biology;5;8
859569;Бихле;Артем;Александрович;28.03.2016 15:04;1@2.ua;3805012345678;Biology;1;5
859613;Конюшенко;Сергей;Петрович;26.03.2016 14:44;1@2.ua;3805012345678;Biology;2;7
859871;Пшеничный;Станислав;;26.03.2016 21:05;1@2.ua;3805012345678;Biology;3;4
860001;Оноприенко;Сергей;;27.03.2016 10:18;1@2.ua;3805012345678;Biology;4;6
860012;Белобжевский;Федор;;29.03.2016 13:59;1@2.ua;3805012345678;Biology;5;8
860274;Сенатор;Игорь;;05.02.2019 11:36;1@2.ua;3805012345678;Biology;1;5
860388;жорник;алексей;;27.03.2016 19:42;1@2.ua;3805012345678;Biology;2;7
860620;Долгий;Юрий;Александрович;28.03.2016 9:20;1@2.ua;3805012345678;Biology;3;4
860644;Недайвода;Владимир;;28.03.2016 9:33;1@2.ua;3805012345678;Biology;4;6
860655;Соловьёв;Владлен;Валентинович;28.03.2016 9:40;1@2.ua;3805012345678;Biology;5;8
860680;Нена;Анатолий;Иванович;28.03.2016 10:00;1@2.ua;3805012345678;Biology;1;5
860689;Жигалов;Игорь;Васильевич;30.03.2016 12:33;1@2.ua;3805012345678;Biology;2;7
860722;Шевченко;Антон;Викторович;28.03.2016 10:23;1@2.ua;3805012345678;Biology;3;4
860747;Скорик;Дмитрий;Владиславович;29.03.2016 10:33;1@2.ua;3805012345678;Biology;4;6
860758;Шевченко;Вячеслав;;18.04.2016 16:41;1@2.ua;3805012345678;Biology;5;8
860759;Брыль;Павел;;28.03.2016 10:38;1@2.ua;3805012345678;Biology;1;5
860918;Кимарский;Валерий;Викторович;28.03.2016 12:02;1@2.ua;3805012345678;Biology;2;7
860923;Мирошник;Роман;Васильевич;28.03.2016 12:03;1@2.ua;3805012345678;Biology;3;4
860997;Троценко;Олег;Леонидович;28.03.2016 12:34;1@2.ua;3805012345678;Biology;4;6
861125;Чёрная;Любовь;;28.03.2016 14:28;1@2.ua;3805012345678;Biology;5;8
861144;Куйдин;Андрей;Николаевич;28.03.2016 14:37;1@2.ua;3805012345678;Biology;1;5
861165;Свирин;Владимир;Николаевич;28.03.2016 14:44;1@2.ua;3805012345678;Biology;2;7
861214;Галиберда;Александр;Александрович;28.03.2016 15:10;1@2.ua;3805012345678;Biology;3;4
861300;Гладченко;Руслан;Петрович;28.03.2016 15:48;1@2.ua;3805012345678;Biology;4;6
861306;Иванкевич;Михаил;;06.04.2016 11:58;1@2.ua;3805012345678;Biology;5;8
861503;Логвинов;Владимир;Сергеевич;10.07.2018 13:37;1@2.ua;3805012345678;Biology;1;5
861574;Моянская;Татьяна;;28.03.2016 18:19;1@2.ua;3805012345678;Biology;2;7
861584;Харьковский;Денис;;28.03.2016 18:26;1@2.ua;3805012345678;Biology;3;4
861638;Горбаток;Владимир;;28.03.2016 19:00;1@2.ua;3805012345678;Biology;4;6
861747;Кашинцев;Анатолий;;28.03.2016 21:11;1@2.ua;3805012345678;Biology;5;8
861757;Верезуб;Максим;;20.01.2017 14:58;1@2.ua;3805012345678;Biology;1;5
861960;Мамадалиев;Руслан;Камалдинович;29.03.2016 9:19;1@2.ua;3805012345678;Biology;2;7
861967;Клянцкой;Виктор;;29.03.2016 9:26;1@2.ua;3805012345678;Biology;3;4
861971;Ерёменко;Денис;Эдуардович;29.03.2016 9:31;1@2.ua;3805012345678;Biology;4;6
862017;Вдовиченко;Игорь;;29.03.2016 10:01;1@2.ua;3805012345678;Biology;5;8
862045;Пелешко;Петр;Васильевич;27.04.2016 10:08;1@2.ua;3805012345678;Biology;1;5
862090;Мамрак;Николай;Владимирович;29.03.2016 10:51;1@2.ua;3805012345678;Biology;2;7
862096;Гузенко;Сергей;;18.10.2016 11:03;1@2.ua;3805012345678;Biology;3;4
862113;(!);Колгофер;Сергей;01.04.2016 14:47;1@2.ua;3805012345678;Biology;4;6
862184;Галенко;Максим;;29.03.2016 11:33;1@2.ua;3805012345678;Biology;5;8
862412;Гордеева;Анна;Николаевна;29.03.2016 13:43;1@2.ua;3805012345678;Biology;1;5
862434;Пирогов;Евгений;;29.03.2016 13:56;1@2.ua;3805012345678;Biology;2;7
862474;Ковтун;Дмитрий;Витальевич;29.03.2016 14:27;1@2.ua;3805012345678;Biology;3;4
862501;малютенко;артем;;29.03.2016 14:48;1@2.ua;3805012345678;Biology;4;6
862515;Потопальский;Артем;;29.03.2016 14:52;1@2.ua;3805012345678;Biology;5;8
862564;Поповский;А.В.;;06.07.2020 17:27;1@2.ua;3805012345678;Biology;1;5
862594;Пашинский;Дмитрий;;29.03.2016 15:50;1@2.ua;3805012345678;Biology;2;7
862707;Кухновец;Валерий;Николаевич;29.03.2016 17:10;1@2.ua;3805012345678;Biology;3;4
863005;Паленко;Вадим;;29.03.2016 22:59;1@2.ua;3805012345678;Biology;4;6
863039;Стерлигов;Алекасндр;;30.03.2016 11:37;1@2.ua;3805012345678;Biology;5;8
863049;Орос;Иван;;30.03.2016 0:52;1@2.ua;3805012345678;Biology;1;5
863155;Кошелев;Михаил;;30.03.2016 9:18;1@2.ua;3805012345678;Biology;2;7
863168;Стукало;Леонид;Николаевич;30.03.2016 9:29;1@2.ua;3805012345678;Biology;3;4
863186;Кочетов;Павел;;30.03.2016 10:15;1@2.ua;3805012345678;Biology;4;6
863189;(!);Крупа;Владимир;19.04.2016 14:21;1@2.ua;3805012345678;Biology;5;8
863242;Карев;Владимир;;30.03.2016 10:23;1@2.ua;3805012345678;Biology;1;5
863421;Куюн;Виталий;Владимирович;30.03.2016 11:51;1@2.ua;3805012345678;Biology;2;7
863523;Койдан;Олег;Юрьевич;31.03.2016 14:34;1@2.ua;3805012345678;Biology;3;4
863530;Каращенко;Виктор;Николаевич;30.03.2016 12:54;1@2.ua;3805012345678;Biology;4;6
863541;Падковский;Вячеслав;Леонидович;30.03.2016 12:59;1@2.ua;3805012345678;Biology;5;8
863552;чернецкий;виктор;;30.03.2016 13:06;1@2.ua;3805012345678;Biology;1;5
863563;Адамский;Ярослав;;30.03.2016 13:13;1@2.ua;3805012345678;Biology;2;7
863572;zabrotskyi;roman;;30.03.2016 13:18;1@2.ua;3805012345678;Biology;3;4
863621;Вознюк;Максим;Владимирович;30.03.2016 13:40;1@2.ua;3805012345678;Biology;4;6
863771;Буренко;Александр;;19.11.2018 16:09;1@2.ua;3805012345678;Biology;5;8
863785;Гулый;Александр;Петрович;30.03.2016 15:13;1@2.ua;3805012345678;Biology;1;5
863793;Афонин;Максим;Николаевич;30.03.2016 15:18;1@2.ua;3805012345678;Biology;2;7
863848;Голубев;Евгений;;30.03.2016 16:05;1@2.ua;3805012345678;Biology;3;4
863918;Макуш;Сергей;Петрович;30.03.2016 16:29;1@2.ua;3805012345678;Biology;4;6
863920;Антонюк;Вячеслав;Андреевич;30.03.2016 16:31;1@2.ua;3805012345678;Biology;5;8
863968;Климчик;Иван;Васильевич;30.03.2016 16:57;1@2.ua;3805012345678;Biology;1;5
864011;кравец;евгений;;07.06.2016 13:26;1@2.ua;3805012345678;Biology;2;7
864014;Радченко;Виталий;;30.03.2016 17:26;1@2.ua;3805012345678;Biology;3;4
864046;Карачун;Владимир;;30.03.2016 17:49;1@2.ua;3805012345678;Biology;4;6
864125;Никончук;Андрей;;30.03.2016 19:20;1@2.ua;3805012345678;Biology;5;8
864408;Лищенко;Виктор;Петрович;31.03.2016 9:00;1@2.ua;3805012345678;Biology;1;5
864427;Ивченко;Владимир;;31.03.2016 9:23;1@2.ua;3805012345678;Biology;2;7
864431;Махотин;Артем;Сергеевич;31.03.2016 9:26;1@2.ua;3805012345678;Biology;3;4
864442;Брадиштян;Юрий;Константинович;31.03.2016 9:30;1@2.ua;3805012345678;Biology;4;6
864447;Хайло;Богдан;Игоревич;31.03.2016 9:34;1@2.ua;3805012345678;Biology;5;8
864469;Мороз;Константин;Сергеевич;31.03.2016 9:46;1@2.ua;3805012345678;Biology;1;5
864509;Романов;Ярослав;;31.03.2016 10:24;1@2.ua;3805012345678;Biology;2;7
864730;Ивченко;Игорь;;31.03.2016 11:35;1@2.ua;3805012345678;Biology;3;4
864819;Курдас;Игорь;Александрович;31.03.2016 12:18;1@2.ua;3805012345678;Biology;4;6
865009;Кувербин;Дмитрий;;31.03.2016 13:56;1@2.ua;3805012345678;Biology;5;8
865082;ПАТ;ГЕМОПЛАСТ;;31.03.2016 14:42;1@2.ua;3805012345678;Biology;1;5
865117;Плющ;Александр;Александрович;31.03.2016 15:00;1@2.ua;3805012345678;Biology;2;7
865205;Кухарь;Сергей;Александрович;31.03.2016 15:47;1@2.ua;3805012345678;Biology;3;4
865295;Слушай;Сергей;;31.03.2016 16:48;1@2.ua;3805012345678;Biology;4;6
865349;Никитин;Сергей;Николаевич;31.03.2016 17:20;1@2.ua;3805012345678;Biology;5;8
865495;Bovc;Serg;;31.03.2016 19:33;1@2.ua;3805012345678;Biology;1;5
865538;чеканова;анна;;31.03.2016 20:30;1@2.ua;3805012345678;Biology;2;7
865623;Головийчук;Вадим;;13.04.2016 9:28;1@2.ua;3805012345678;Biology;3;4
865685;Моргун;Константин;;24.12.2016 2:57;1@2.ua;3805012345678;Biology;4;6
865855;Горенко;Роман;Сергеевич;06.04.2016 14:44;1@2.ua;3805012345678;Biology;5;8
866025;Охрименко;Сергей;Витальевич;01.04.2016 14:48;1@2.ua;3805012345678;Biology;1;5
866080;Тихоненко;Виталий;Владимирович;01.04.2016 12:18;1@2.ua;3805012345678;Biology;2;7
866190;(!)Зяблова;Ольга;;19.04.2016 20:09;1@2.ua;3805012345678;Biology;3;4
866297;Скрыпник;Александр;Игоревич;01.04.2016 14:26;1@2.ua;3805012345678;Biology;4;6
866489;Лымарь;Игорь;Николаевич;01.04.2016 16:41;1@2.ua;3805012345678;Biology;5;8
866502;Карагяур;Вадим;;01.04.2016 16:48;1@2.ua;3805012345678;Biology;1;5
866537;Бовкун;Сергей;Евгеньевич;01.04.2016 17:17;1@2.ua;3805012345678;Biology;2;7
866558;Мисник;Александр;;01.04.2016 17:37;1@2.ua;3805012345678;Biology;3;4
866562;Разбаков;Александр;;01.04.2016 18:23;1@2.ua;3805012345678;Biology;4;6
866735;Долейко;Александр;;01.04.2016 22:31;1@2.ua;3805012345678;Biology;5;8
866854;Бузницкий;Руслан;;02.04.2016 9:23;1@2.ua;3805012345678;Biology;1;5
866880;Калинин;Дмитрий;;02.04.2016 22:08;1@2.ua;3805012345678;Biology;2;7
866885;Кравченко;Роман;Юрьевич;02.04.2016 10:12;1@2.ua;3805012345678;Biology;3;4
866948;Коршун;Борис;;02.04.2016 10:57;1@2.ua;3805012345678;Biology;4;6
866992;Ворона;Виктор;Алексеевич;02.04.2016 11:33;1@2.ua;3805012345678;Biology;5;8
867069;Кисель;Александр;;02.04.2016 12:42;1@2.ua;3805012345678;Biology;1;5
867099;Хохлов;Вячеслав;Юрьевич;02.04.2016 13:12;1@2.ua;3805012345678;Biology;2;7
868201;Панченко;Константин;;04.04.2016 9:00;1@2.ua;3805012345678;Biology;3;4
868244;Черновол;Виктор;;04.04.2016 9:33;1@2.ua;3805012345678;Biology;4;6
868270;мельник;юлия;;04.04.2016 9:43;1@2.ua;3805012345678;Biology;5;8
868300;Осадчый;Сергей;;04.04.2016 10:02;1@2.ua;3805012345678;Biology;1;5
868302;Яроменко;Андрей;;04.04.2016 10:06;1@2.ua;3805012345678;Biology;2;7
868321;Агеев;Евгений;;04.04.2016 10:15;1@2.ua;3805012345678;Biology;3;4
868333;Горбачёв;Виталий;Сергеевич;04.04.2016 10:20;1@2.ua;3805012345678;Biology;4;6
868358;Негара;Александр;;04.04.2016 10:28;1@2.ua;3805012345678;Biology;5;8
868380;Радченко;Владимир;Васильевич;04.04.2016 10:41;1@2.ua;3805012345678;Biology;1;5
868386;Качан;Сергей;Николаевич;04.04.2016 10:45;1@2.ua;3805012345678;Biology;2;7
868413;Шевцов;Евгений;;04.04.2016 10:56;1@2.ua;3805012345678;Biology;3;4
868422;(!)Кормело;Петр;Николаевич;19.04.2016 20:12;1@2.ua;3805012345678;Biology;4;6
868454;Курбанов;Павел;Владимирович;04.04.2016 11:16;1@2.ua;3805012345678;Biology;5;8
868494;Бачкала;Аркадий;Владимирович;04.04.2016 11:33;1@2.ua;3805012345678;Biology;1;5
868496;Чайковський;Максим;Сергеевич;04.04.2016 11:35;1@2.ua;3805012345678;Biology;2;7
868514;Прокопенко;Василий;Анатольевич;04.04.2016 11:43;1@2.ua;3805012345678;Biology;3;4
868546;Головатюк;Александр;Сергеевич;04.04.2016 11:57;1@2.ua;3805012345678;Biology;4;6
868635;Олейник;Александр;Викторович;04.04.2016 12:30;1@2.ua;3805012345678;Biology;5;8
868650;Карплюк;Елена;;04.04.2016 12:36;1@2.ua;3805012345678;Biology;1;5
868657;Кривобок;Дмитрий;Александрович;04.04.2016 12:38;1@2.ua;3805012345678;Biology;2;7
868768;Горелов;Александр;;04.04.2016 13:25;1@2.ua;3805012345678;Biology;3;4
868791;Дембицкий;Дмитрий;(дубликат);08.04.2016 18:27;1@2.ua;3805012345678;Biology;4;6
868865;Белоконь;Вячеслав;Владимирович;04.04.2016 14:15;1@2.ua;3805012345678;Biology;5;8
868902;Вакарь;Андрей;;04.04.2016 14:34;1@2.ua;3805012345678;Biology;1;5
868958;Смольянинов;Сергей;Иванович;04.04.2016 14:59;1@2.ua;3805012345678;Biology;2;7
868998;Бойко;Виталий;Александрович;04.04.2016 15:21;1@2.ua;3805012345678;Biology;3;4
869042;Вакарь;Андрей;;04.04.2016 15:41;1@2.ua;3805012345678;Biology;4;6
869067;Бойчук;Михайло;;04.04.2016 15:50;1@2.ua;3805012345678;Biology;5;8
869084;Демьяненко;Андрей;Игоревич;04.04.2016 15:59;1@2.ua;3805012345678;Biology;1;5
869296;Остапенко;Руслан;;13.04.2016 11:22;1@2.ua;3805012345678;Biology;2;7
869732;Небожин;Александр;Николаевич;05.04.2016 9:20;1@2.ua;;Biology;3;4
869733;Небожин;Александр;Николаевич;05.04.2016 9:20;1@2.ua;3,80504E+11;Biology;4;6
869741;Подгорных;Виталий;Вячеславович;05.04.2016 9:25;1@2.ua;3,80967E+11;Biology;5;8
869763;Ясевитый;Олег;Олегович;05.04.2016 9:38;1@2.ua;3,80977E+11;Biology;1;5
869856;Евсеев;Алексей;Сергеевич;05.04.2016 10:33;1@2.ua;3,80677E+11;Biology;2;7
870108;Самошкин;Дмитрий;;11.04.2016 21:13;1@2.ua;3,80638E+11;Biology;3;4
870114;Сапожков;Сергей;Викторович;05.04.2016 12:36;1@2.ua;3,80973E+11;Biology;4;6
870175;Дембицкий;Дмитрий;;10.06.2016 13:35;1@2.ua;3,80672E+11;Biology;5;8
870375;Каратицин;Юрий;Анатольевич;05.04.2016 15:01;1@2.ua;3,80677E+11;Biology;1;5
870402;Тихонов;Иван;Митрофанович;05.04.2016 15:16;1@2.ua;3,80676E+11;Biology;2;7
870486;Урденко;Андрей;Викторович;05.04.2016 16:22;1@2.ua;3,80507E+11;Biology;3;4
870504;Жигановский;Максим;;05.04.2016 16:41;1@2.ua;3,80639E+11;Biology;4;6
870547;Амосов;Михаил;Александрович;05.04.2016 16:56;1@2.ua;3,80665E+11;Biology;5;8
870573;Богдасаров;Олег;;05.04.2016 17:11;1@2.ua;3,80674E+11;Biology;1;5
870641;Фиалка;Александр;;05.04.2016 18:02;1@2.ua;3,80667E+11;Biology;2;7
870784;Михайлик;Антон;;05.04.2016 20:18;1@2.ua;3,80934E+11;Biology;3;4
871071;Баев;Александр;;06.04.2016 9:23;1@2.ua;3,80664E+11;Biology;4;6
871103;Филарет;Валерий;;06.04.2016 9:50;1@2.ua;3,80675E+11;Biology;5;8
871105;Губаренко;Андрей;Владимирович;06.04.2016 9:55;1@2.ua;3,80667E+11;Biology;1;5
871243;Ахромеев;Сергей;Николаевич;06.04.2016 11:10;1@2.ua;3,80667E+11;Biology;2;7
871249;Быков;Евгений;Валентинович;06.04.2016 11:13;1@2.ua;3,80679E+11;Biology;3;4
871268;Дяченко;Николай;Семёнович;06.04.2016 11:20;1@2.ua;3,80631E+11;Economic;4;6
871334;Лащюк;Виктор;;06.04.2016 11:49;1@2.ua;3,80639E+11;Economic;5;8
871407;Пилип;Игорь;Дмитриевич;28.04.2016 13:39;1@2.ua;3,80667E+11;Economic;1;5
871506;Дидык;Юрий;Михайлович;06.04.2016 13:13;1@2.ua;3,80969E+11;Economic;2;7
871528;Коломыцев;Владимир;Петрович;18.10.2016 14:12;1@2.ua;3,80974E+11;Economic;3;4
871536;Ананко;Олексей;Петрович;06.04.2016 13:29;1@2.ua;3,80931E+11;Economic;4;6
871549;Салманов;Артур;Николаевич;06.04.2016 15:28;1@2.ua;3,80983E+11;Economic;5;8
871556;Зубрей;Евгений;Васильевич;06.04.2016 13:43;1@2.ua;3,80992E+11;Economic;1;5
871569;Зонов;Роман;;06.04.2016 13:50;1@2.ua;3,80676E+11;Economic;2;7
871714;Сидоренко;Сергей;;06.04.2016 15:28;1@2.ua;3,80982E+11;Economic;3;4
871723;Парахин;Дмитрий;Владимирович;06.04.2016 15:35;1@2.ua;3,8099E+11;Economic;4;6
871818;Борило;Андрей;Владимирович;23.01.2017 12:10;1@2.ua;3,80504E+11;Economic;5;8
871826;Лавриненко;Андрей;Николаевич;06.04.2016 16:34;1@2.ua;3,80669E+11;Economic;1;5
871926;Сухленко;Сергей;;06.04.2016 17:42;1@2.ua;3,80505E+11;Economic;2;7
872340;Беспалов;Олег;Владимирович;07.04.2016 9:04;1@2.ua;3,80505E+11;Economic;3;4
872350;Биляев;Владимир;;07.04.2016 9:16;1@2.ua;3,80964E+11;Economic;4;6
872362;Браславец;Александр;Владимирович;23.05.2016 16:35;1@2.ua;3,80664E+11;Economic;5;8
872365;Фирсов;Геннадий;Викторович;08.04.2016 10:39;1@2.ua;3,80668E+11;Economic;1;5
872372;Бологов;Андрей;Валентинович;07.04.2016 9:39;1@2.ua;3,80679E+11;Economic;2;7
872394;Шербан;Александр;;07.04.2016 9:55;1@2.ua;3,80675E+11;Economic;3;4
872428;Масюк;Егор;;07.04.2016 10:16;1@2.ua;3,8099E+11;Economic;4;6
872580;КРАВЧУК;ЮРИЙ;ТАРАСОВИЧ;07.04.2016 11:06;1@2.ua;3,80973E+11;Economic;5;8
872795;Нестеренко;Сергей;Николаевич;07.04.2016 11:55;1@2.ua;3,80953E+11;Economic;1;5
872903;Кривич;Игорь;Юрьевич;07.04.2016 12:37;1@2.ua;3,80506E+11;Economic;2;7
873005;Колесник;Валерий;;07.04.2016 13:31;1@2.ua;3,80678E+11;Economic;3;4
873106;Попов;Вадим;;07.04.2016 14:35;1@2.ua;3,80938E+11;Economic;4;6
873488;Котенко;Павел;;07.04.2016 14:45;1@2.ua;3,80678E+11;Economic;5;8
873671;Довгый;Олег;;07.04.2016 14:52;1@2.ua;3,80669E+11;Economic;1;5
873743;Приходько;Виталий;Николаевич;07.04.2016 15:44;1@2.ua;3,80971E+11;Economic;2;7
873847;Петренко;Юра;;07.04.2016 16:48;1@2.ua;3,80964E+11;Economic;3;4
873859;Мелентьева;Людмила;Петровна;07.04.2016 16:59;1@2.ua;3,8051E+11;Economic;4;6
874304;Меркулов;Виктор;Григорьевич;08.04.2016 9:08;1@2.ua;3,80505E+11;Economic;5;8
874397;Торубара;Богдан;Владимирович;08.04.2016 10:20;1@2.ua;3,80509E+11;Economic;1;5
874471;Мельничук;Василь;;08.04.2016 10:58;1@2.ua;3,80978E+11;Economic;2;7
874655;Прохорчук;Дмитрий;;08.04.2016 12:22;1@2.ua;3,80672E+11;Economic;3;4
874974;Остапчук;Антон;;04.05.2016 11:41;1@2.ua;3,80502E+11;Economic;4;6
875045;Абросимов;Андрей;Юрьевич;08.04.2016 16:29;1@2.ua;3,80971E+11;Economic;5;8
875182;Желтобрюх;Владимир;Алексеевич;08.04.2016 18:11;1@2.ua;3,80663E+11;Economic;1;5
875192;Евлоев;Руслан;Мухтарович;08.04.2016 18:32;1@2.ua;3,80675E+11;Economic;2;7
875442;Донец;Евгений;;09.04.2016 10:35;1@2.ua;30958747425;Economic;3;4
875447;Ларионов;Николай;Борисович;09.04.2016 9:16;1@2.ua;3,80668E+11;Economic;4;6
875527;Смирнов;Юрий;;09.04.2016 11:02;1@2.ua;3,80678E+11;Economic;5;8
875621;Руденко;Игорь;Иванович;09.04.2016 12:24;1@2.ua;3,80636E+11;Economic;1;5
875746;Решко;Руслан;;09.04.2016 14:07;1@2.ua;;Economic;2;7
876588;Панарин;Андрей;;10.04.2016 20:20;1@2.ua;3,80505E+11;Economic;3;4
876602;Чуприна;Артем;;12.04.2016 9:13;1@2.ua;3,80502E+11;Economic;4;6
876647;Лубенец;Сергей;;03.10.2016 22:20;1@2.ua;3,80963E+11;Economic;5;8
876682;Дубей;Андрій;;10.04.2016 23:25;1@2.ua;3,80951E+11;Economic;1;5
876702;Явоненко;Владимир;;13.04.2016 14:02;1@2.ua;3,80633E+11;Economic;2;7
876806;милюта;виктор;викторович;03.11.2016 20:29;1@2.ua;3,80506E+11;Economic;3;4
876829;Захарченко;Анатолий;Николаевич;11.04.2016 9:19;1@2.ua;3,80506E+11;Economic;4;6
876852;Левантовский;Евгений;Яковлевич;11.04.2016 9:37;1@2.ua;3,80968E+11;Economic;5;8
876857;Савенко;Александр;Викторович;11.04.2016 9:39;1@2.ua;3,80672E+11;Economic;1;5
876885;Дьяченко;Владимир;;07.07.2016 13:34;1@2.ua;3,80509E+11;Economic;2;7
876896;Мельник;Владимир;;11.04.2016 10:04;1@2.ua;3,80672E+11;Economic;3;4
876905;Вацеба;Тарас;;11.04.2016 10:08;1@2.ua;3,80635E+11;Economic;4;6
876909;Сафонюк;Владимир;;11.04.2016 10:12;1@2.ua;3,80974E+11;Economic;5;8
876920;Нерет;Вячеслав;;11.04.2016 10:17;1@2.ua;3,80635E+11;Economic;1;5
876953;Ветров;Илья;;11.04.2016 10:28;1@2.ua;3,80996E+11;Economic;2;7
876981;Рациевский;Валентин;Алексеевич;11.04.2016 10:41;1@2.ua;3,80972E+11;Economic;3;4
877000;Полтавский;Александр;Михайлович;11.04.2016 10:46;1@2.ua;3,80506E+11;Economic;4;6
877006;Попов;Генадий;Петрович;11.04.2016 10:49;1@2.ua;3,80992E+11;Economic;5;8
877040;Сенькив;Василий;Иванович;11.04.2016 11:00;1@2.ua;;Economic;1;5
877044;Сеньков;Василий;Иванович;11.04.2016 12:56;1@2.ua;988895170;Economic;2;7
877118;Псарёва;Алла;;11.04.2016 11:29;1@2.ua;3,80506E+11;Economic;3;4
877171;Семидетнов;Дмитрий;Васильевич;11.04.2016 11:58;1@2.ua;3,80664E+11;Economic;4;6
877182;Сыроватка;Сергей;Петрович;11.04.2016 12:07;1@2.ua;3,80974E+11;Economic;5;8
877222;Ковтун;Людмила;Ивановна;11.04.2016 12:30;1@2.ua;3,8066E+11;Economic;1;5
877313;Цимбалюк;Евгений;;11.04.2016 13:07;1@2.ua;3,80953E+11;Economic;2;7
877374;Апонюк;Игорь;Николаевич;11.04.2016 13:36;1@2.ua;3,80689E+11;Economic;3;4
877402;"ООО""ПромТрансНефтеСервис""";;;13.12.2016 16:07;1@2.ua;3,80503E+11;Economic;4;6
877493;Казаринов;Денис;Михайлович;11.04.2016 14:35;1@2.ua;3,80954E+11;Economic;5;8
877525;Вальчук;Андрей;;11.04.2016 14:47;1@2.ua;3,80971E+11;Economic;1;5
877621;Яременко;Владимир;Васильевич;11.04.2016 15:34;1@2.ua;3,80954E+11;Economic;2;7
877673;евсеев;сергей;;11.04.2016 16:14;1@2.ua;3,80965E+11;Economic;3;4
877681;Кожещкурт;Александр;;11.04.2016 16:01;1@2.ua;3,80958E+11;Economic;4;6
877778;ивотской;владислав;;11.04.2016 16:46;1@2.ua;3,80939E+11;Economic;5;8
877822;Васильев;Виталий;;11.04.2016 17:09;1@2.ua;3,80957E+11;Economic;1;5
877907;Давиденко;Алексей;Юрьевич;11.04.2016 17:51;1@2.ua;3,80952E+11;Economic;2;7
877985;крыловский;сергей;;11.04.2016 19:02;1@2.ua;3,80672E+11;Economic;3;4
878035;переверза;Иван;;11.04.2016 19:42;1@2.ua;3,80972E+11;Economic;4;6
878177;Кузенный;Сергей;;20.04.2016 17:39;1@2.ua;3,80677E+11;Economic;5;8
878228;Ковалев;Владимир;;11.04.2016 23:25;1@2.ua;80664992279;Economic;1;5
878402;Лагун;Владимир;Васильевич;12.04.2016 9:21;1@2.ua;3,80507E+11;Economic;2;7
878408;Калугин;Роман;Иванович;12.04.2016 9:26;1@2.ua;3,80951E+11;Economic;3;4
878414;Онищенко;Виталий;;31.10.2016 20:40;1@2.ua;3,80503E+11;Economic;4;6
878423;Сусловец;Игорь;Васильевич;12.04.2016 9:38;1@2.ua;3,80663E+11;Economic;5;8
878433;Немчанинов;Валерий;Афанасьевич;12.04.2016 9:44;1@2.ua;3,80933E+11;Economic;1;5
878463;Акопян;Бакур;Багратович;12.04.2016 9:58;1@2.ua;3,80932E+11;Economic;2;7
878466;Губанов;Вячеслав;;13.03.2019 17:19;1@2.ua;3,80931E+11;Economic;3;4
878508;Павлович;Степан;;12.04.2016 10:20;1@2.ua;3,80672E+11;Economic;4;6
878546;Нестеренко;Владимир;;10.06.2016 13:33;1@2.ua;3,805E+11;Economic;5;8
878549;Тарасов;Макс;;19.01.2017 16:18;1@2.ua;3,8099E+11;Economic;1;5
878648;Иванова;Валентина;;12.04.2016 11:33;1@2.ua;3,80973E+11;Economic;2;7
878862;Тарасов;Евгений;Вдимович;12.04.2016 12:33;1@2.ua;3,80931E+11;Economic;3;4
878877;Дудко;Виталий;Викторович;12.04.2016 12:41;1@2.ua;3,80637E+11;Economic;4;6
878964;Задворный;Дмитрий;Андреевич;03.11.2016 15:12;1@2.ua;3,80672E+11;Economic;5;8
878993;Медведев;Владимир;;19.05.2016 9:17;1@2.ua;3,80681E+11;Economic;1;5
878999;ганжа;николай;;25.04.2016 12:25;1@2.ua;3,80509E+11;Economic;2;7
879025;Гулай;Гулай;Юрий;12.04.2016 13:51;1@2.ua;3,80977E+11;Economic;3;4
879158;Бардук;Олег;Сергеевич;12.04.2016 14:49;1@2.ua;3,8093E+11;Economic;4;6
879242;Чепурной;Владимир;;13.04.2016 14:16;1@2.ua;3,80959E+11;Economic;5;8
879532;Слабко;Анатолий;Иванович;12.04.2016 17:43;1@2.ua;3,80666E+11;Economic;1;5
879590;Акбари;Гулам;;12.04.2016 18:27;1@2.ua;3,80978E+11;Economic;2;7
880018;Кожухар;Валерий;;13.04.2016 9:18;1@2.ua;3,80668E+11;Economic;3;4
880041;Забугин;Андрей;;13.04.2016 9:33;1@2.ua;3,80998E+11;Economic;4;6
880061;Черкасский;Дмитрий;Михайлович;13.04.2016 9:48;1@2.ua;3,80683E+11;Economic;5;8
880101;Гончаренко;Андрей;;13.04.2016 10:13;1@2.ua;3,80677E+11;Economic;1;5
880198;Голуб;Дмитрий;Анатольевич;13.04.2016 11:10;1@2.ua;3,80503E+11;Economic;2;7
880204;Цилуйко;Юрий;Алексеевич;13.04.2016 11:14;1@2.ua;3,8097E+11;Economic;3;4
880346;Браца;Алексей;Вячеславович;13.04.2016 12:15;1@2.ua;3,80503E+11;Economic;4;6
880549;Саванчук;Игорь;Михайлович;13.04.2016 13:55;1@2.ua;3,80931E+11;Economic;5;8
880560;Лапкин;Сергей;;13.04.2016 13:59;1@2.ua;3,80503E+11;Economic;1;5
880762;Лукаевич;Юрий;Григорьевич;13.04.2016 15:36;1@2.ua;3,80961E+11;Economic;2;7
880783;Ляпин;Дмитрий;;13.04.2016 15:51;1@2.ua;3,80953E+11;Economic;3;4
880833;Расторгуев;Александр;;13.04.2016 16:13;1@2.ua;3,80934E+11;Economic;4;6
880851;Чепелянский;Дмитрий;Владимирович;13.04.2016 16:18;1@2.ua;3,80964E+11;Economic;5;8
880860;Таран;Владислав;;13.04.2016 16:23;1@2.ua;3,80972E+11;Economic;1;5
881010;Клопот;Юрий;Викторович;13.04.2016 17:42;1@2.ua;3,8093E+11;Economic;2;7
881038;Гриценко;Иван;;13.04.2016 18:02;1@2.ua;3,805E+11;Economic;3;4
881075;Мельник;Виктор;Николаевич;13.04.2016 18:23;1@2.ua;3,80674E+11;Economic;4;6
881524;Пугач;Виктор;Васильевич;14.04.2016 9:32;1@2.ua;3,80684E+11;Economic;5;8
881596;Багиев;Сабухи;Явавр;14.04.2016 10:21;1@2.ua;3,80675E+11;Economic;1;5
881637;Гусь;Сергей;;14.04.2016 10:44;1@2.ua;3,80505E+11;Economic;2;7
881705;Кац;Евгений;;14.04.2016 11:13;1@2.ua;80967165445;Economic;3;4
881738;Куличенко;Анатолий;;14.04.2016 11:31;1@2.ua;3,80959E+11;Economic;4;6
881854;Светличный;Евгений;Юрьевич;14.04.2016 12:20;1@2.ua;3,80667E+11;Economic;5;8
881959;Свичкарь;Геннадий;Владимирович;22.12.2016 11:01;1@2.ua;3,80984E+11;Economic;1;5
881991;Аква;Сервис;;14.04.2016 13:39;1@2.ua;3,80504E+11;Economic;2;7
882118;Комбинат;питания;завода;14.04.2016 14:36;1@2.ua;3,80662E+11;Economic;3;4
882374;Кобеляцкий;Дмитрий;;14.04.2016 16:40;1@2.ua;3,80971E+11;Economic;4;6
882433;Кузьменко;Григорий;Александрович;20.04.2016 16:25;1@2.ua;3,80973E+11;Economic;5;8
882556;Алексеев;Антон;;14.04.2016 18:30;1@2.ua;3,80986E+11;Economic;1;5
882904;Кравченко;Эдуард;;19.10.2017 16:24;1@2.ua;3,80504E+11;Economic;2;7
882940;Степанюк;Александр;Владимирович;15.04.2016 9:35;1@2.ua;3,80663E+11;Economic;3;4
882980;Гальченко;Виктория;Николаевна;15.04.2016 10:04;1@2.ua;3,80676E+11;Economic;4;6
883028;Михно;Сергей;Михайлович;15.04.2016 10:37;1@2.ua;3,80677E+11;Economic;5;8
883177;Погорелый;Виктор;;12.07.2016 15:35;1@2.ua;3,80662E+11;Economic;1;5
883296;Руснак;Іван;;15.04.2016 13:13;1@2.ua;3,80959E+11;Economic;2;7
883299;Холявский;Николай;;15.04.2016 13:11;1@2.ua;3,80666E+11;Economic;3;4
883443;Барков;Роман;Васильевич;15.04.2016 14:48;1@2.ua;3,80503E+11;Economic;4;6
883499;Гуща;Артем;Юрьевич;15.04.2016 15:29;1@2.ua;3,80939E+11;Economic;5;8
883552;Корсун;Михаил;Иванович;15.04.2016 16:10;1@2.ua;3,80661E+11;Economic;1;5
883604;Черноусов;Роман;;15.04.2016 16:43;1@2.ua;3,80933E+11;Economic;2;7
883609;Левантовский;Евгений;Яковлевич;15.04.2016 16:45;1@2.ua;3,80639E+11;Economic;3;4
883629;Курчаткин;Никита;Сергеевич;15.04.2016 16:58;1@2.ua;3,80635E+11;Economic;4;6
883743;Свириденко;Анатолий;Сергеевич;19.04.2016 10:30;1@2.ua;3,80638E+11;Economic;5;8
883991;Кок;Игорь;;16.04.2016 9:08;1@2.ua;3,80976E+11;Economic;1;5
884028;Литвишко;Валентин;Анатольевич;16.04.2016 10:41;1@2.ua;3,80963E+11;Economic;2;7
884030;Марков;Денис;Геннадиевич;16.04.2016 10:14;1@2.ua;3,80673E+11;Economic;3;4
884052;Калита;Андрей;;11.01.2017 17:07;1@2.ua;3,80631E+11;Economic;4;6
884097;Мищенко;Валерий;;16.01.2017 12:17;1@2.ua;3,80676E+11;Economic;5;8
884124;Волотин;Евгений;;16.04.2016 11:42;1@2.ua;3,80679E+11;Economic;1;5
884869;Кобец;Виталий;;17.04.2016 13:10;1@2.ua;3,80509E+11;Economic;2;7
885107;Алесковский;Евгений;;17.04.2016 20:36;1@2.ua;80958915213;Economic;3;4
885128;Перепич;Алексей;;17.04.2016 21:42;1@2.ua;80509201997;Economic;4;6
885171;Хорьков;Денис;;17.04.2016 23:30;1@2.ua;3,80679E+11;Economic;5;8
885296;Руденко;Эдуард;Валерьевич;18.04.2016 9:16;1@2.ua;3,80995E+11;Economic;1;5
885300;Коваленко;Андрей;;18.04.2016 9:18;1@2.ua;3,80981E+11;Economic;2;7
885334;Винокуров;Александр;Алексеевич;18.04.2016 9:50;1@2.ua;3,80973E+11;Economic;3;4
885343;Денесюк;Олег;Викторович;18.04.2016 9:55;1@2.ua;3,80678E+11;Economic;4;6
885384;Коваленко;Александр;Николаевич;08.11.2016 17:52;1@2.ua;3,80664E+11;Economic;5;8
885462;Семенова;Олена;Вікторівна;22.07.2016 14:17;1@2.ua;3,80982E+11;Economic;1;5
885644;Карандашов;Константин;;18.04.2016 11:54;1@2.ua;3,80505E+11;Economic;2;7
885647;Каплун;Александр;Николаевич;18.04.2016 11:54;1@2.ua;3,80635E+11;Economic;3;4
885795;Коженов;Денис;Михайлович;18.04.2016 12:44;1@2.ua;3,80989E+11;Economic;4;6
885863;Петренко;Вадим;Петрович;20.04.2016 15:57;1@2.ua;3,80937E+11;Economic;5;8
885887;Астапович;Андрей;Петрович;18.04.2016 13:21;1@2.ua;3,80997E+11;Economic;1;5
885916;Черноиван;Михаил;;19.04.2016 10:22;1@2.ua;3,80505E+11;Economic;2;7
886118;Jansonas;Gediminas;;02.06.2016 16:42;1@2.ua;37062070558;Economic;3;4
886268;Подольский;Александр;Александрович;23.04.2016 10:15;1@2.ua;3,80978E+11;Economic;4;6
886314;Головня;Максим;Анатольевич;18.04.2016 16:33;1@2.ua;3,80504E+11;Economic;5;8
886401;Головенец;Олег;Петрович;20.04.2016 10:37;1@2.ua;3,80507E+11;Economic;1;5
886473;Комлыков;Николай;Владимирович;18.04.2016 18:07;1@2.ua;3,80667E+11;IT;2;7
886874;Григорьев;Александр;;19.04.2016 9:00;1@2.ua;3,80955E+11;IT;3;4
886896;Лозинская;Наталья;;19.04.2016 9:15;1@2.ua;3,80632E+11;IT;4;6
886898;Бутчаный;Алексей;Петрович;19.04.2016 9:16;1@2.ua;3,80978E+11;IT;5;8
886904;Бурячук;Владислав;Викторович;19.04.2016 9:21;1@2.ua;3,80988E+11;IT;1;5
886942;Бондарев;Александр;Александрович;19.04.2016 9:45;1@2.ua;3,8066E+11;IT;2;7
887147;Высоцкий;Максим;;19.04.2016 11:22;1@2.ua;3,80504E+11;IT;3;4
887305;Ногин;Дмитрий;Николаевич;18.01.2019 11:30;1@2.ua;3,80503E+11;IT;4;6
887404;Кочерба;Александр;;19.04.2016 13:26;1@2.ua;3,80674E+11;IT;5;8
887444;Арцыбасов;Валерий;;19.04.2016 13:43;1@2.ua;3,80634E+11;IT;1;5
887472;Петренко;Андрей;;10.05.2016 11:31;1@2.ua;3,80952E+11;IT;2;7
887531;Соломко;Сергей;Викторович;19.04.2016 14:19;1@2.ua;3,8063E+11;IT;3;4
887603;Бойко;Владимир;;19.04.2016 15:01;1@2.ua;3,80676E+11;IT;4;6
887648;Скиба;Александр;;19.04.2016 15:24;1@2.ua;3,80971E+11;IT;5;8
887828;Халальди;;;12.08.2016 12:16;1@2.ua;3,80936E+11;IT;1;5
888383;Лещенко;Вадим;Владимирович;01.10.2018 10:11;1@2.ua;3,80976E+11;IT;2;7
888527;Бережной;Павел;;26.04.2016 7:36;1@2.ua;3,80933E+11;IT;3;4
888641;Хуртовский;Виктор;Николаевич;20.04.2016 12:03;1@2.ua;3,80966E+11;IT;4;6
888917;Трифонова;Екатерина;Михайловна;20.04.2016 14:26;1@2.ua;3,80508E+11;IT;5;8
889291;Кушниренко;Виталий;Алексеевич;20.04.2016 17:30;1@2.ua;3,80996E+11;IT;1;5
889396;Павленко;Анна;;20.04.2016 18:21;1@2.ua;3,80665E+11;IT;2;7
889530;Чечетка;Анатолий;;20.04.2016 19:52;1@2.ua;3,80633E+11;IT;3;4
889539;Емельянов;Сергей;;20.04.2016 19:56;1@2.ua;79108147097;IT;4;6
889868;Шнурик;Евгений;;21.04.2016 8:11;1@2.ua;3,80663E+11;IT;5;8
890042;(!)Рыбалко;Александр;;26.04.2016 9:46;1@2.ua;3,80637E+11;IT;1;5
890194;Гузенок;Руслан;Николаевич;21.04.2016 11:08;1@2.ua;3,80996E+11;IT;2;7
890222;Шинкаренко;Андрей;;21.04.2016 11:19;1@2.ua;3,8051E+11;IT;3;4
890355;Пригоцький;Максим;Леонидович;21.04.2016 12:07;1@2.ua;3,8068E+11;IT;4;6
890399;ПСП;УкрРосХим;;21.04.2016 12:19;1@2.ua;3,80503E+11;IT;5;8
890431;Потапенко;Василий;;11.11.2016 12:12;1@2.ua;3,80506E+11;IT;1;5
890470;Глущенко;Владимир;Евгеньевич;21.04.2016 12:51;1@2.ua;3,80986E+11;IT;2;7
890578;Ягудзинский;Вячеслав;Николаевич;21.04.2016 13:34;1@2.ua;3,80963E+11;IT;3;4
890650;Демиденко;Александр;Владимирович;21.04.2016 14:08;1@2.ua;3,80507E+11;IT;4;6
891108;Приходько;Александр;Леонидович;17.06.2017 18:42;1@2.ua;3,80503E+11;IT;5;8
891270;Малакеев;Дмитрий;;24.04.2016 6:19;1@2.ua;3,80937E+11;IT;1;5
891531;Иванков;Олег;;22.04.2016 9:04;1@2.ua;3,80667E+11;IT;2;7
891632;Головецький;Євген;;22.04.2016 10:20;1@2.ua;3,80972E+11;IT;3;4
891634;Жигало;Роман;;22.04.2016 10:19;1@2.ua;3,80976E+11;IT;4;6
891652;Горбуль;Александр;;06.05.2016 12:19;1@2.ua;3,80664E+11;IT;5;8
891661;Бойкив;Василий;;22.04.2016 10:31;1@2.ua;3,8096E+11;IT;1;5
891672;Шевченко;Андрей;;22.04.2016 10:36;1@2.ua;;IT;2;7
891673;Шевченко;Андрей;;22.04.2016 10:37;1@2.ua;3,80633E+11;IT;3;4
891758;Чуприн;Алексей;Николаевич;22.04.2016 11:21;1@2.ua;3,80939E+11;IT;4;6
891833;Марат;FEN;;18.11.2016 17:18;1@2.ua;3,80996E+11;IT;5;8
892023;Михаил;Volvo;;22.04.2016 13:37;1@2.ua;3,80676E+11;IT;1;5
892046;Свириденко;Виталий;;22.04.2016 13:56;1@2.ua;80669055941;IT;2;7
892187;Пастушенко;Дмитрий;Николаевич;22.04.2016 15:13;1@2.ua;3,8093E+11;IT;3;4
892193;Рудский;Михаил;Петрович;22.04.2016 15:21;1@2.ua;3,80668E+11;IT;4;6
892213;Дроздов;Сергей;;22.04.2016 15:34;1@2.ua;3,80662E+11;IT;5;8
892448;Родичев;Михаил;Васильевич;26.11.2016 10:40;1@2.ua;3,80503E+11;IT;1;5
892501;Калашников;Александр;;26.04.2016 9:52;1@2.ua;3,80986E+11;IT;2;7
892631;Cуворов;Валерий;;22.04.2016 22:26;1@2.ua;3,80635E+11;IT;3;4
892725;kharaidze;dait;;23.04.2016 7:49;1@2.ua;9,95592E+11;IT;4;6
892761;Петренко;Сергей;;25.04.2016 9:50;1@2.ua;3,80963E+11;IT;5;8
892768;Войтин;Михаил;Алексеевич;23.04.2016 9:17;1@2.ua;3,80679E+11;IT;1;5
892784;Петель;Владимир;Александрович;23.04.2016 9:35;1@2.ua;3,80509E+11;IT;2;7
892813;Демченко;Виталий;Валерьевич;23.04.2016 10:04;1@2.ua;3,80501E+11;IT;3;4
893021;сентемов;сергей;витальевич;13.09.2016 16:32;1@2.ua;3,80667E+11;IT;4;6
893134;Хоменко;Владимир;Михайлович;23.04.2016 14:28;1@2.ua;3,80972E+11;IT;5;8
893144;Хиргий;Александр;;12.08.2016 12:35;1@2.ua;3,80509E+11;IT;1;5
893158;Малков;Виктор;Александрович;23.04.2016 14:55;1@2.ua;3,80505E+11;IT;2;7
893423;Михальчук;Николай;;30.10.2019 16:50;1@2.ua;3,80998E+11;IT;3;4
893507;Надеев;Николай;;23.04.2016 23:51;1@2.ua;3,80502E+11;IT;4;6
893527;Багдай;Олег;;29.04.2016 17:10;1@2.ua;3,80685E+11;IT;5;8
893904;Курской;Максим;;24.04.2016 16:47;1@2.ua;3,80505E+11;IT;1;5
894305;Пилипенко;Виктор;Иванович;25.04.2016 10:05;1@2.ua;3,8069E+11;IT;2;7
894339;Попов;Андрей;Юрьевич;25.04.2016 9:43;1@2.ua;3,80669E+11;IT;3;4
894341;Сычак;Иван;Иванович;25.04.2016 9:44;1@2.ua;3,80954E+11;IT;4;6
894378;Петровций;Александр;Васильевич;25.04.2016 10:11;1@2.ua;3,80685E+11;IT;5;8
894385;Шкиль;Андрей;;25.04.2016 10:15;1@2.ua;3,80631E+11;IT;1;5
894435;Твердохлебов;Юрий;;25.04.2016 10:38;1@2.ua;3,80998E+11;IT;2;7
894472;Гурин;Дмитрий;;02.12.2016 12:05;1@2.ua;3,80638E+11;IT;3;4
894489;Видин;Сергей;Владимирович;25.04.2016 11:01;1@2.ua;3,80665E+11;IT;4;6
894540;Рубан;Владислав;;25.04.2016 11:24;1@2.ua;3,80953E+11;IT;5;8
894627;Школьник;Антон;;25.04.2016 12:00;1@2.ua;3,80673E+11;IT;1;5
894674;Бухало;Юрий;Николаевич;25.04.2016 12:23;1@2.ua;3,80962E+11;IT;2;7
894711;Химиця;Любомир;;25.04.2016 12:40;1@2.ua;3,80979E+11;IT;3;4
894735;Виноградов;Владислав;;25.04.2016 12:55;1@2.ua;3,80977E+11;IT;4;6
894820;Антонов;Алексей;Игоревич;25.04.2016 13:37;1@2.ua;3,80662E+11;IT;5;8
894892;МЧС;;;25.04.2016 14:19;1@2.ua;3,80504E+11;IT;1;5
894903;Чуйков;Роман;;25.04.2016 14:25;1@2.ua;3,80507E+11;IT;2;7
894912;Мазур;Виталий;Витальевич;25.04.2016 14:29;1@2.ua;3,80964E+11;IT;3;4
895075;Прозоров;Роман;;27.10.2016 12:34;1@2.ua;3,8066E+11;IT;4;6
895108;Проскурников;Михаил;Анатольевич;25.04.2016 16:05;1@2.ua;3,80957E+11;IT;5;8
895191;Корецкий;Николай;;25.04.2016 16:51;1@2.ua;3,80688E+11;IT;1;5
895231;Пермяков;Геннадий;;02.06.2020 14:04;1@2.ua;3,80509E+11;IT;2;7
895512;Dolgalev;Aleksandr;;25.04.2016 20:41;1@2.ua;3,80631E+11;IT;3;4
895952;Мозгляков;Николай;Вячеславович;11.11.2016 11:32;1@2.ua;3,80731E+11;IT;4;6
896009;Зозуля;Виталий;;26.04.2016 11:16;1@2.ua;3,80978E+11;IT;5;8
896041;Дубограй;Игорь;Александрович;26.04.2016 11:28;1@2.ua;3,80966E+11;IT;1;5
896181;Токарь;Владимир;Николаевич;26.04.2016 12:44;1@2.ua;3,80964E+11;IT;2;7
896208;Dsky;Вадим;;26.04.2016 13:47;1@2.ua;3,80503E+11;IT;3;4
896371;Петренко;Руслан;;26.04.2016 14:12;1@2.ua;3,80675E+11;IT;4;6
896417;Слободянюк;Василий;;26.04.2016 14:40;1@2.ua;3,80938E+11;IT;5;8
896464;Брусницын;Александр;Николаевич;26.05.2016 16:54;1@2.ua;3,80667E+11;IT;1;5
896518;Копынос;Александр;Васильевич;20.07.2016 9:22;1@2.ua;3,80508E+11;IT;2;7
896618;Картавый;Александр;Николаевич;26.04.2016 16:45;1@2.ua;3,80936E+11;IT;3;4
896699;Байдов;Виталий;Викторович;26.04.2016 17:33;1@2.ua;3,8099E+11;IT;4;6
897099;Степанюк;Сергей;;27.04.2016 9:02;1@2.ua;3,80636E+11;IT;5;8
897109;Тарасенко;Владимир;Васильевич;27.04.2016 9:12;1@2.ua;3,80932E+11;IT;1;5
897111;Красновская;Тати;Самитовна;27.04.2016 9:15;1@2.ua;3,80939E+11;IT;2;7
897121;Щедрин;Владислав;Валерьевич;27.04.2016 9:22;1@2.ua;3,80972E+11;IT;3;4
897126;Мотайло;Сергей;;27.04.2016 9:29;1@2.ua;3,80963E+11;IT;4;6
897132;Косюга;Александр;Васильевич;23.06.2018 9:28;1@2.ua;3,80976E+11;IT;5;8
897150;Юрчак;Максим;;27.04.2016 10:29;1@2.ua;3,80507E+11;IT;1;5
897159;Маслов;Олег;Витальевич;27.04.2016 9:55;1@2.ua;3,80977E+11;IT;2;7
897196;Горденко;Владимир;Николаевич;27.04.2016 10:18;1@2.ua;3,80637E+11;IT;3;4
897216;Москаленко;Иван;Владимирович;27.04.2016 10:27;1@2.ua;3,80661E+11;IT;4;6
897241;Терещук;Юрий;Викторович;27.04.2016 10:39;1@2.ua;3,80667E+11;IT;5;8
897343;Покита;Михаил;Александрович;27.04.2016 11:16;1@2.ua;3,80997E+11;IT;1;5
897387;Венгров;Руслан;;27.04.2016 11:34;1@2.ua;3,80931E+11;IT;2;7
897459;Айвазян;Роберт;;27.04.2016 12:01;1@2.ua;3,8067E+11;IT;3;4
897503;Погребной;Андрей;;27.04.2016 12:16;1@2.ua;3,80961E+11;IT;4;6
897531;Тимофеев;Юрий;;27.04.2016 12:35;1@2.ua;3,80955E+11;IT;5;8
897537;Нархов;Михаил;;28.06.2016 12:45;1@2.ua;3,80664E+11;IT;1;5
897670;Суханов;Юрий;Борисович;27.04.2016 13:48;1@2.ua;3,80989E+11;IT;2;7
897690;Белянкин;Максим;Вячеславович;27.04.2016 14:01;1@2.ua;3,80675E+11;IT;3;4
897696;Коваль;Александр;;28.04.2016 15:03;1@2.ua;3,80665E+11;IT;4;6
897831;Чернышова;Богдана;;27.04.2016 20:34;1@2.ua;3,80972E+11;IT;5;8
897918;Лагоза;Сергей;;27.04.2016 14:43;1@2.ua;3,8099E+11;IT;1;5
897931;Корчаченко;Андрей;;27.04.2016 14:52;1@2.ua;3,80991E+11;IT;2;7
898097;Пономарь;Вячеслав;;27.04.2016 16:40;1@2.ua;3,80992E+11;IT;3;4
898113;Козаренко;Игорь;;27.04.2016 16:50;1@2.ua;3,80674E+11;IT;4;6
898150;Алюшин;Александр;;12.04.2020 0:55;1@2.ua;3,80971E+11;IT;5;8
898195;Панащенко;Роман;Анатольевич;15.11.2016 15:53;1@2.ua;3,80508E+11;IT;1;5
898262;Ременной;Роман;;27.04.2016 18:46;1@2.ua;3,80669E+11;IT;2;7
898431;Герега;Василий;;27.04.2016 22:30;1@2.ua;3,80996E+11;IT;3;4
898463;Козончук;Дмитрий;;24.06.2016 11:55;1@2.ua;3,8099E+11;IT;4;6
898474;Иванов;Иван;;28.04.2016 0:13;1@2.ua;3,80668E+11;IT;5;8
898596;Олейник;Виталий;мГригорьевич;28.04.2016 9:23;1@2.ua;3,80504E+11;IT;1;5
898626;Поляруш;Олег;;28.04.2016 9:29;1@2.ua;3,80677E+11;IT;2;7
898749;Тулимов;Андрей;;28.04.2016 10:55;1@2.ua;3,80956E+11;IT;3;4
898918;Куропата;Дмитрий;Павлович;28.04.2016 12:34;1@2.ua;3,80979E+11;IT;4;6
899411;Белобров;Дмитрий;;05.05.2016 14:30;1@2.ua;3,80952E+11;IT;5;8
899634;Сиволап;Владимир;;28.04.2016 22:57;1@2.ua;3,80992E+11;IT;1;5
899716;Лебедь;Евгений;;29.04.2016 7:34;1@2.ua;80737232323;IT;2;7
899750;Паршин;Вадим;;29.04.2016 8:38;1@2.ua;3,80506E+11;IT;3;4
899795;Крупченко;Виталий;Анатольевич;29.04.2016 9:26;1@2.ua;3,80663E+11;IT;4;6
899799;Фишман;НИколай;;29.04.2016 9:30;1@2.ua;3,80676E+11;IT;5;8
899836;Ищук;Денис;Валерьевич;29.04.2016 9:53;1@2.ua;3,8095E+11;Social;1;5
899946;Черняк;Анатолий;;29.04.2016 10:55;1@2.ua;3,80669E+11;Social;2;7
899991;Рудык;Юрий;;29.04.2016 11:17;1@2.ua;3,80678E+11;Social;3;4
899995;Кочура;Илья;;29.04.2016 11:22;1@2.ua;3,80505E+11;Social;4;6
900011;Якушевский;Вячеслав;Иванович;29.04.2016 11:32;1@2.ua;3,80503E+11;Social;5;8
900071;Глух;Дмитрий;;29.04.2016 11:55;1@2.ua;3,80676E+11;Social;1;5
900113;Дружченко;Павел;;16.05.2016 18:31;1@2.ua;3,80939E+11;Social;2;7
900283;Миронов;Максим;;29.04.2016 14:07;1@2.ua;3,80976E+11;Social;3;4
900818;Ложечка;Анатолий;;30.04.2016 9:13;1@2.ua;3,8099E+11;Social;4;6
900884;Довженко;Юрий;Валерьевич;30.04.2016 10:32;1@2.ua;3,80674E+11;Social;5;8
900889;Щуров;Віталій;;30.04.2016 10:44;1@2.ua;3,80667E+11;Social;1;5
900907;Биличенко;Сергей;;30.04.2016 11:03;1@2.ua;80675024030;Social;2;7
902213;Виноград;Павел;Романович;03.05.2016 9:14;1@2.ua;3,80506E+11;Social;3;4
902228;Кравцов;Николай;;03.05.2016 9:31;1@2.ua;3,80956E+11;Social;4;6
902232;Писоцкий;Евгений;Петрович;03.05.2016 9:43;1@2.ua;3,80508E+11;Social;5;8
902239;пивнев;Дмитрий;;03.05.2016 10:00;1@2.ua;3,80506E+11;Social;1;5
902240;Семкин;Дмитрий;;03.05.2016 9:55;1@2.ua;3,80678E+11;Social;2;7
902298;Саврацкий;Валентин;Михайлович;03.05.2016 11:05;1@2.ua;3,80939E+11;Social;3;4
902322;Гошовский;Дмитрий;;03.05.2016 11:29;1@2.ua;3,80956E+11;Social;4;6
902332;Найдёнов;Александр;Леонидович;03.05.2016 11:42;1@2.ua;3,80502E+11;Social;5;8
902472;Леськов;Володимир;;03.05.2016 14:04;1@2.ua;3,80936E+11;Social;1;5
902497;Семененко;Евгений;;03.05.2016 14:38;1@2.ua;3,80989E+11;Social;2;7
902541;Сторожик;Владислав;Иванович;03.05.2016 15:36;1@2.ua;3,80675E+11;Social;3;4
902575;Конта;Олег;Сергеевич;03.05.2016 16:23;1@2.ua;3,80683E+11;Social;4;6
902952;Ракша;Иван;Николаевич;04.05.2016 9:14;1@2.ua;3,80675E+11;Social;5;8
903095;Салов;Алексей;;04.05.2016 10:36;1@2.ua;3,80507E+11;Social;1;5
903168;Корж;Александр;Владимирович;04.05.2016 11:21;1@2.ua;3,80507E+11;Social;2;7
903171;Струнов;Вячеслав;;08.07.2019 14:50;1@2.ua;3,80632E+11;Social;3;4
903193;Стародуб;Вадим;Станиславович;19.07.2016 13:02;1@2.ua;3,80957E+11;Social;4;6
903268;Ермоленко;Виталий;Владимирович;04.05.2016 12:05;1@2.ua;3,80668E+11;Social;5;8
903364;Лазорин;Василий;;04.05.2016 12:46;1@2.ua;3,80975E+11;Social;1;5
903654;Стаценко;Геннадий;Владимирович;04.05.2016 15:18;1@2.ua;3,80506E+11;Social;2;7
903862;Дояр;Анатолий;Петрович;04.05.2016 16:58;1@2.ua;3,80671E+11;Social;3;4
903903;Сапьяник;Евгений;;04.05.2016 17:23;1@2.ua;3,80678E+11;Social;4;6
903926;Сухих;Юрий;Васильевич;04.05.2016 17:41;1@2.ua;3,80666E+11;Social;5;8
903955;Диличенко;Сергей;;04.05.2016 18:02;1@2.ua;3,80675E+11;Social;1;5
904052;солтыс;арсен;;04.05.2016 19:25;1@2.ua;3,80973E+11;Social;2;7
904478;Пластун;Сергей;Григорьевич;05.05.2016 10:22;1@2.ua;3,80958E+11;Social;3;4
904501;Щербина;Сергей;;05.05.2016 14:56;1@2.ua;3,80665E+11;Social;4;6
904572;Назаренко;Николай;Дмитриевич;05.05.2016 11:09;1@2.ua;3,80955E+11;Social;5;8
904661;Шевченко;Виталий;Николаевич;05.05.2016 11:57;1@2.ua;3,80675E+11;Social;1;5
904775;Миргород;Ярослав;;27.01.2017 12:24;1@2.ua;3,80503E+11;Social;2;7
904833;Кобзев;Евгений;Пантелеевич;05.05.2016 13:38;1@2.ua;3,80507E+11;Social;3;4
904864;Евтушенко;Дмитрий;;05.05.2016 13:58;1@2.ua;3,80997E+11;Social;4;6
904924;Письменный;Антон;;05.05.2016 14:29;1@2.ua;3,80958E+11;Social;5;8
905063;Зюбан;Владимир;Дмитриевич;05.05.2016 15:47;1@2.ua;3,80983E+11;Social;1;5
905081;Щербинский;Кирил;;05.05.2016 15:55;1@2.ua;3,80676E+11;Social;2;7
905378;Хабенко;Виталий;;17.05.2016 9:25;1@2.ua;3,8095E+11;Social;3;4
905388;Кулак;Павел;;05.05.2016 20:08;1@2.ua;3,80676E+11;Social;4;6
905637;Бондаренко;Максим;Валерьевич;06.05.2016 9:12;1@2.ua;3,80666E+11;Social;5;8
905663;Булик;Ігор;;06.05.2016 11:42;1@2.ua;3,80976E+11;Social;1;5
905871;Ванцовский;Олег;;06.05.2016 12:46;1@2.ua;3,80952E+11;Social;2;7
905950;Попко;Павел;;06.05.2016 12:55;1@2.ua;3,80734E+11;Social;3;4
905972;Келя;Алексей;;06.05.2016 13:05;1@2.ua;3,80509E+11;Social;4;6
906149;Ивков;Дмитрий;Степанович;07.05.2016 11:28;1@2.ua;3,80661E+11;Social;5;8
906166;Христич;Александр;;06.05.2016 15:16;1@2.ua;3,8068E+11;Social;1;5
906196;Даниленко;Виталий;;16.05.2016 15:16;1@2.ua;3,80504E+11;Social;2;7
906213;Ильинский;Олег;Владимирович;06.05.2016 15:57;1@2.ua;3,80673E+11;Social;3;4
906237;Мельник;Роман;Борисович;06.05.2016 16:17;1@2.ua;3,80502E+11;Social;4;6
906297;Токар;Андрей;Ильич;06.05.2016 17:11;1@2.ua;3,80977E+11;Social;5;8
906337;Разумовский;Эдуард;Игоревич;06.05.2016 17:54;1@2.ua;3,80668E+11;Social;1;5
906418;Пискун;Александр;;06.05.2016 20:17;1@2.ua;3,80689E+11;Social;2;7
906468;Кадурин;Александр;;09.08.2019 15:05;1@2.ua;3,80997E+11;Social;3;4
906484;Синицкий;Виктор;;07.08.2016 10:36;1@2.ua;3,80952E+11;Social;4;6
906486;Синицкий;Виктор;;06.05.2016 22:30;1@2.ua;3,80963E+11;Social;5;8
906520;Минчук;Игорь;;07.05.2016 0:37;1@2.ua;3,80635E+11;Social;1;5
906584;Чайка;Валентин;;07.05.2016 9:40;1@2.ua;3,8097E+11;Social;2;7
906620;Фляга;Денис;;07.05.2016 10:50;1@2.ua;3,80986E+11;Social;3;4
906679;Галимова;Надежда;;07.05.2016 11:54;1@2.ua;3,80939E+11;Social;4;6
906901;Л;Игорь;;07.05.2016 16:32;1@2.ua;3,80504E+11;Social;5;8
907330;Плаксун;Віктор;;10.05.2016 9:27;1@2.ua;3,80936E+11;Social;1;5
907789;Петроченко;Леонид;;10.05.2016 9:12;1@2.ua;3,80958E+11;Social;2;7
907810;Володько;Ольга;;10.05.2016 9:23;1@2.ua;3,80967E+11;Social;3;4
907820;Хвалибога;Руслан;;10.05.2016 9:34;1@2.ua;3,80675E+11;Social;4;6
907846;Щедрин;Дмитрий;;10.05.2016 9:49;1@2.ua;3,80974E+11;Social;5;8
907847;Кошка;Владимир;;10.05.2016 9:49;1@2.ua;3,80636E+11;Social;1;5
907893;Келебай;Михайло;;10.05.2016 10:20;1@2.ua;3,80939E+11;Social;2;7
907908;Якимчук;Николай;;10.05.2016 10:31;1@2.ua;3,80682E+11;Social;3;4
907998;Коваленко;Виктор;;10.05.2016 11:10;1@2.ua;3,80957E+11;Social;4;6
908002;Зубарчук;Леонид;;10.05.2016 19:48;1@2.ua;3,80677E+11;Social;5;8
908156;Сидоренко;Анастасия;Сергеевна;03.06.2016 14:49;1@2.ua;3,80509E+11;Social;1;5
908160;Шоробура;Александр;;10.05.2016 12:17;1@2.ua;3,8051E+11;Social;2;7
908167;Головченко;Василий;Владимирович;10.05.2016 12:20;1@2.ua;3,80504E+11;Social;3;4
908375;Лемешко;Рафаэль;;10.05.2016 14:05;1@2.ua;3,80506E+11;Social;4;6
908397;Якименко;Вячеслав;;10.05.2016 14:20;1@2.ua;3,80996E+11;Social;5;8
908457;Дудченко;Николай;Владимирович;10.05.2016 14:56;1@2.ua;3,80939E+11;Social;1;5
908461;Лужецкий;Павел;;10.05.2016 14:58;1@2.ua;3,80969E+11;Social;2;7
908518;Крумаленко;Генадий;Анатольевич;10.05.2016 15:28;1@2.ua;3,80934E+11;Social;3;4
908526;Соседкий;Олег;Васильевич;10.05.2016 15:31;1@2.ua;3,80976E+11;Social;4;6
908536;Царенок;Олег;Викторович;10.05.2016 15:36;1@2.ua;3,80984E+11;Social;5;8
908569;Ильницкий;Юрий;Юрьевич;10.05.2016 16:00;1@2.ua;3,80968E+11;Social;1;5
908576;Гушпит;Дмитрий;;10.05.2016 16:06;1@2.ua;3,80661E+11;Social;2;7
908673;Кухарь;Денис;;10.05.2016 17:13;1@2.ua;3,80633E+11;Social;3;4
908776;Заварзин;Виталий;;10.05.2016 18:44;1@2.ua;80676018564;Social;4;6
909258;Влизков;Игорь;;11.05.2016 10:29;1@2.ua;3,80503E+11;Social;5;8
909302;Никонов;Руслан;;11.05.2016 10:48;1@2.ua;3,80994E+11;Social;1;5
909368;Борсук;Михаил;;11.05.2016 11:21;1@2.ua;3,80967E+11;Social;2;7
909580;Габ;Анатолий;Николаевич;11.05.2016 12:56;1@2.ua;3,80506E+11;Social;3;8
910174;Латынин;Игорь;;12.05.2016 11:14;1@2.ua;3,80504E+11;Social;4;5
910232;Парфенюк;Петро;;11.05.2016 19:01;1@2.ua;80980073474;Social;5;7
910459;Ерёмин;Валерий;;06.11.2019 19:21;1@2.ua;3,8098E+11;Social;1;4
910469;Якимов;Василий;;11.05.2016 22:50;1@2.ua;3,8051E+11;Social;2;6
910721;Какаций;Игорь;;12.05.2016 10:01;1@2.ua;3,805E+11;Social;3;8
910762;Якименко;Олег;Владимирович;12.05.2016 10:33;1@2.ua;3,80667E+11;Social;4;5
910842;Бондаренко;Вячеслав;Юльевич;12.05.2016 11:08;1@2.ua;3,80503E+11;Social;5;7
910904;Архипов;Владимир;;16.05.2016 15:59;1@2.ua;3,8067E+11;Social;1;4
910941;Наумов;Антон;;12.05.2016 11:59;1@2.ua;3,80962E+11;Social;2;6
911046;Юзефив;Денис;;12.05.2016 12:44;1@2.ua;3,80675E+11;Social;3;8
911079;Волотка;Владимир;;12.05.2016 16:52;1@2.ua;3,80631E+11;Social;4;5
911295;Череднеченко;Александр;Сергеевич;12.05.2016 14:51;1@2.ua;3,80954E+11;Social;5;7
911338;Подлепин;Андрей;;12.05.2016 15:08;1@2.ua;80508883358;Social;5;8
911481;Романенко;Светлана;Анатольевна;04.08.2016 10:38;1@2.ua;3,80952E+11;Social;1;5
911980;приплод;юрий;;19.05.2016 16:56;1@2.ua;3,80666E+11;Social;2;7
912026;Васиков;Денис;;13.05.2016 9:17;1@2.ua;3,80508E+11;Social;3;4
912036;Хорошун;Ярослав;Николаевич;13.05.2016 9:22;1@2.ua;3,80671E+11;Social;4;6
912048;Селицкий;Николай;Васильевич;13.05.2016 9:32;1@2.ua;3,80632E+11;Social;5;8
912074;Муха;Алексей;Викторович;13.05.2016 9:46;1@2.ua;38991013223;Social;1;5
912081;Палухин;Александр;Анатольевич;13.05.2016 9:54;1@2.ua;3,8067E+11;Social;2;7
912271;Горобченко;Александр;Иванович;13.05.2016 14:57;1@2.ua;3,80935E+11;Social;3;4
912334;Залиский;Михаил;Дмитриевич;13.05.2016 12:06;1@2.ua;3,80988E+11;Social;4;6
912466;Калашников;Владимир;Александрович;25.08.2016 11:00;1@2.ua;3,80972E+11;Social;5;8
912477;Лукомский;Андрей;;17.05.2016 9:34;1@2.ua;3,80675E+11;Social;1;5
912523;Островський;В.М.;;30.05.2016 10:41;1@2.ua;3,80951E+11;Social;2;7
912532;Форника;Ирина;;13.05.2016 13:50;1@2.ua;80977954975;Social;3;4
912643;Чебан;Петр;;13.05.2016 15:06;1@2.ua;3,80955E+11;Social;4;6
912667;Карапузов;Владимир;Валентинович;13.05.2016 15:18;1@2.ua;3,80982E+11;Social;5;8
912756;Тишаков;Николай;Михайлович;13.05.2016 16:08;1@2.ua;3,80505E+11;Social;1;5
912992;putry;bogdan;;13.05.2016 19:32;1@2.ua;3,80506E+11;Social;2;7
913189;Тимофеев;Сергей;;14.05.2016 8:46;1@2.ua;3,80995E+11;Social;3;4
913209;Силивко;Александр;;14.05.2016 9:23;1@2.ua;3,80934E+11;Social;4;6
913268;Дидоренко;Максим;Иванович;14.05.2016 10:38;1@2.ua;3,80672E+11;Social;5;8
913296;Буравель;Олег;;14.05.2016 11:13;1@2.ua;3,80933E+11;Social;1;5
913343;Топорков;Дмитрий;Юрьевич;14.05.2016 11:41;1@2.ua;3,80667E+11;Social;2;7
913360;Ялтанец;Дмитрий;;14.05.2016 11:54;1@2.ua;3,80679E+11;Social;3;4
913388;Черкашин;Виталий;Анатольевич;09.07.2020 9:28;1@2.ua;3,80506E+11;Social;4;6
913422;Тимлык;Антон;;21.05.2016 11:43;1@2.ua;38966260026;Social;5;8
913454;Сухочев;Ярослав;;14.05.2016 13:21;1@2.ua;3,80993E+11;Social;1;5
913725;Букринёв;Александр;;03.03.2019 18:39;1@2.ua;3,80503E+11;Social;2;7
913780;Ласточка;Виталий;;14.05.2016 21:38;1@2.ua;3,80664E+11;Social;3;4
913944;Болдыжев;Михаил;;15.05.2016 11:07;1@2.ua;3,80964E+11;Social;4;6
914101;Левченко;Виктор;;15.05.2016 15:00;1@2.ua;3,80662E+11;Social;5;8
914257;Москаленко;Иван;;15.05.2016 20:24;1@2.ua;3,80971E+11;Social;1;5
914388;Тратата;Лекс;;16.05.2016 3:02;1@2.ua;80932570209;Social;2;7
914444;Гармаш;Александр;;22.08.2016 15:46;1@2.ua;3,80661E+11;Social;3;4
914537;Капельников;Андрей;;24.07.2019 11:13;1@2.ua;3,80686E+11;Social;4;6
914549;лощиц;игорь;;16.05.2016 9:47;1@2.ua;3,80509E+11;Social;5;8
914553;Кривко;Виктор;;16.05.2016 9:51;1@2.ua;3,80503E+11;Social;1;5
914564;Бабиков;Игорь;;16.05.2016 9:59;1@2.ua;3,8051E+11;Social;2;7
914636;верховский;дмитрий;;16.05.2016 10:33;1@2.ua;3,80954E+11;Social;3;4
914656;Пузанов;Алексей;;19.05.2016 15:20;1@2.ua;3,80509E+11;Social;4;6
914730;Шумиловский;Алексей;;16.05.2016 11:13;1@2.ua;3,80998E+11;Social;5;8
914734;Клянин;Виталий;Александрович;16.05.2016 11:17;1@2.ua;3,80667E+11;Social;1;5
914767;Голобоков;Михаил;Владимирович;16.05.2016 11:30;1@2.ua;3,80952E+11;Social;2;7
914864;Воловод;Александр;;10.02.2020 13:58;1@2.ua;80507713323;Social;3;4
915107;Стриженко;Владимир;;16.05.2016 13:38;1@2.ua;3,80953E+11;Social;4;6
915266;Савчук;Игорь;Александрович;16.05.2016 15:00;1@2.ua;;Social;5;8
915270;Солдатов;Денис;;16.05.2016 15:06;1@2.ua;3,80954E+11;Social;1;5
915273;Савчук;Игорь;Александрович;05.08.2016 15:12;1@2.ua;3,80997E+11;Social;2;7
915928;Царенков;Сергей;Станиславович;17.05.2016 9:26;1@2.ua;3,80958E+11;Social;3;4
915953;Гюмюшлю;Георгий;;17.05.2016 11:17;1@2.ua;3,80502E+11;Social;4;6
915980;Мендела;Юрий;Иванович;23.05.2016 11:34;1@2.ua;3,80998E+11;Social;5;8
916136;Артюнян;Александр;;17.05.2016 10:54;1@2.ua;3,80673E+11;Social;1;5
916183;Фокша;Виталий;;17.05.2016 11:22;1@2.ua;3,80931E+11;Social;2;7
916275;Захарчук;Александр;Николаевич;17.05.2016 12:04;1@2.ua;3,80679E+11;Social;3;4
916871;Биленко;Михаил;;17.05.2016 14:48;1@2.ua;3,80506E+11;Social;4;6
917599;Скляров;Денис;Владимирович;18.05.2016 9:37;1@2.ua;3,80635E+11;Social;5;8
917651;Глазков;Андрей;Владимирович;18.05.2016 14:42;1@2.ua;3,80662E+11;Social;1;5
917692;Бурдуев;Андрей;Васильевич;18.05.2016 10:32;1@2.ua;3,80501E+11;Social;2;7
917800;Ефреминко;Николай;;18.05.2016 11:29;1@2.ua;3,8099E+11;Social;3;4
918110;Бабинских;Анатолий;Анатольевич;18.05.2016 14:17;1@2.ua;3,80976E+11;Social;4;6
918143;Кулешов;Игорь;;18.05.2016 14:30;1@2.ua;3,80661E+11;Social;5;8
918173;Неклеса;Александр;Валентинович;18.05.2016 14:37;1@2.ua;3,80633E+11;Social;1;5
918230;Алейников;Виталий;Николаевич;18.05.2016 14:59;1@2.ua;3,80509E+11;Social;2;7
918289;Тришкин;Роман;Валентинович;18.05.2016 15:34;1@2.ua;3,80637E+11;Social;3;4
918816;Ясницкий;Дмитрий;;18.05.2016 21:15;1@2.ua;80976763383;Social;4;6
918929;Олейник;Александр;;27.08.2018 11:26;1@2.ua;3,80637E+11;Social;5;8
919101;Кисничан;Олег;;19.05.2016 8:38;1@2.ua;3,80979E+11;Social;1;5
919124;Попков;Артём;;19.05.2016 9:09;1@2.ua;3,80665E+11;Social;2;7
919152;Луценко;Евгения;;19.05.2016 9:28;1@2.ua;3,80994E+11;Social;3;4
919247;Пушкин;Сергей;Владимирович;14.09.2017 13:46;1@2.ua;3,80955E+11;Social;4;6
919344;Я;Александр;;19.05.2016 11:07;1@2.ua;3,80675E+11;Social;5;8
919357;Сухоносов;Роман;;19.05.2016 11:15;1@2.ua;3,80673E+11;Social;1;5
919438;Акопян;Мисис;;19.05.2016 11:48;1@2.ua;3,80977E+11;Social;2;7
919466;Синчишин;Роман;;19.05.2016 12:03;1@2.ua;3,80957E+11;Social;3;4
919668;Шевченко;Валерий;Михайлович;19.05.2016 13:33;1@2.ua;3,80975E+11;Social;4;6
919793;Ліхновський;Андрій;;19.05.2016 14:36;1@2.ua;3,80681E+11;Social;5;8
919849;Марченко;Павло;;19.05.2016 15:02;1@2.ua;3,80989E+11;Social;1;5
920656;Чайка;Виталий;;20.05.2016 10:18;1@2.ua;3,8099E+11;Social;2;7
920705;Квасневский;Василий;Васильевич;20.05.2016 11:04;1@2.ua;3,80981E+11;Social;3;4
920772;Непогожев;Юрий;;20.05.2016 11:27;1@2.ua;3,80954E+11;Social;4;6
920791;Колисниченко;Ольга;;20.05.2016 11:38;1@2.ua;3,80672E+11;Social;5;8
920820;;Неровня;Сергей;20.05.2016 11:50;1@2.ua;3,80677E+11;Social;1;5
920859;Кубинец;Василий;;20.05.2016 12:17;1@2.ua;3,80961E+11;Social;2;7
921042;Коваль;Валерий;Петрович;20.05.2016 13:50;1@2.ua;3,80662E+11;Social;3;4
921055;хощенко;виктор;;20.05.2016 13:56;1@2.ua;3,80509E+11;Social;4;6
921262;Панасенко;Вадим;;30.05.2019 15:28;1@2.ua;3,80669E+11;Social;5;8
921329;Чернега;Роман;;20.05.2016 16:28;1@2.ua;3,8097E+11;Social;1;5
921755;Мищенко;Максим;Анатольевич;21.06.2016 14:04;1@2.ua;3,80995E+11;Social;2;7
921767;Корниенко;Александр;;21.05.2016 9:44;1@2.ua;3,80676E+11;Social;3;4
921894;Коломоец;Александр;Иванович;21.05.2016 12:06;1@2.ua;3,80952E+11;Social;4;6
922025;Корецкий;Олег;;21.05.2016 14:40;1@2.ua;3,80995E+11;Social;5;8
922232;Слюсар;Олександр;;21.05.2016 21:35;1@2.ua;3,80504E+11;Social;1;5
922932;Довгань;Богдан;;22.05.2016 18:35;1@2.ua;3,80962E+11;Social;2;3
923198;Марьянко;Роман;Иванович;16.01.2017 13:07;1@2.ua;3,80502E+11;Social;3;5
923228;Шавлинский;Руслан;;23.05.2016 9:39;1@2.ua;3,80637E+11;Social;4;7
923251;Легкий;Виталий;Олегович;14.07.2020 12:08;1@2.ua;3,80975E+11;Social;5;9
923327;Ищенко;Сергей;Николаевич;23.05.2016 13:26;1@2.ua;3,80672E+11;Social;1;6
923349;Козачек;Надежда;Анатольевна;23.05.2016 10:42;1@2.ua;3,80953E+11;Social;2;3
923385;Турулин;Дмитрий;;23.05.2016 11:11;1@2.ua;3,80981E+11;Social;3;5
923440;Руслан;Руслан;;23.08.2016 15:42;1@2.ua;3,80506E+11;Social;4;7
923474;Марухненко;Николай;;23.05.2016 11:42;1@2.ua;3,80664E+11;Social;5;9
923551;Кирьян;Максим;;23.05.2016 12:16;1@2.ua;3,8051E+11;Social;1;6
923596;Купреев;Роман;;23.05.2016 12:32;1@2.ua;3,80503E+11;Social;2;3
923645;Витковская;Наталья;;23.05.2016 12:49;1@2.ua;3,80979E+11;Social;3;5
923678;Клепинина;Екатерина;Львовна;23.05.2016 13:03;1@2.ua;3,80958E+11;Social;4;7
923738;(!)Кабыченко;Сергей;;27.06.2019 14:18;1@2.ua;3,80676E+11;Social;1;5
923768;Афоничев;Игорь;Алексеевич;23.05.2016 13:56;1@2.ua;3,80975E+11;Social;2;7
923895;Ильченко;Алексей;;23.05.2016 15:00;1@2.ua;3,80934E+11;Social;3;4
923992;Филиппов;Алексей;Геннадьевич;23.05.2016 15:47;1@2.ua;3,80686E+11;Social;4;6
924007;Прохода;Виталий;Владимирович;23.05.2016 15:55;1@2.ua;3,80972E+11;Social;5;8
924037;Сердюк;Богдан;;23.05.2016 16:20;1@2.ua;3,80959E+11;Social;1;5
924080;Косодрыга;Андрей;;23.05.2016 16:36;1@2.ua;3,80939E+11;Social;2;7
924327;Калашников;Сергей;;23.05.2016 20:38;1@2.ua;3,8098E+11;Social;3;4
924683;Харченко;Алексей;Александрович;24.05.2016 10:08;1@2.ua;3,80995E+11;Social;4;6
924949;Малышко;Алексей;Алексеевич;30.05.2016 10:40;1@2.ua;3,80689E+11;Social;5;8
924984;Соловей;Владимир;Петрович;09.11.2016 14:57;1@2.ua;3,80634E+11;Social;1;5
925109;Бакин;Алексей;Валерьевич;24.05.2016 13:52;1@2.ua;3,80983E+11;Social;2;7
925363;Рева;Игорь;Никифорович;24.05.2016 16:09;1@2.ua;3,80673E+11;Social;3;4
925385;Овдиенко;Виталий;;19.08.2016 10:57;1@2.ua;3,80503E+11;Social;4;6
925497;Луговой;Сергей;;02.01.2018 13:52;1@2.ua;3,80964E+11;Social;5;8
925938;Кулишов;Сергей;;25.05.2016 8:57;1@2.ua;3,80666E+11;Social;1;5
925958;Рудницький;Олександр;;25.05.2016 12:43;1@2.ua;3,80676E+11;Social;2;7
925962;Пруц;Геннадий;;25.05.2016 9:16;1@2.ua;3,8097E+11;Social;3;4
925997;Нечай;Николай;Васильевич;25.05.2016 9:38;1@2.ua;3,80675E+11;Social;4;6
926003;Гребенюк;Валентина;Петровна;25.05.2016 9:41;1@2.ua;3,80637E+11;Social;5;8
926082;Польжок;Иван;Николаевич;25.05.2016 10:32;1@2.ua;3,80673E+11;Social;1;5
926381;Кузуб;Роман;;25.05.2016 12:59;1@2.ua;3,80674E+11;Social;2;7
926477;Нечаев;Алексей;;25.05.2016 13:44;1@2.ua;3,80676E+11;Social;3;4
926653;Шулика;Константин;;25.05.2016 15:07;1@2.ua;3,80935E+11;Social;4;6
926773;Бондарец;Владимир;Иванович;25.05.2016 16:15;1@2.ua;3,80954E+11;Social;5;8
926819;Кряж;Владимир;;25.05.2016 16:47;1@2.ua;3,80506E+11;Social;1;5
926829;Первышев;Дмитрий;;25.05.2016 16:50;1@2.ua;3,80974E+11;Social;2;7
927148;Побережный;Фёдор;;26.05.2016 0:50;1@2.ua;3,80952E+11;Social;3;4
927293;Рыбко;Сергей;;06.11.2019 10:21;1@2.ua;3,8098E+11;Social;4;6
927329;Чарченко;Антон;;26.05.2016 9:24;1@2.ua;3,80634E+11;Social;5;8
927386;Кость;Василий;;26.05.2016 10:03;1@2.ua;3,80678E+11;Social;1;5
927441;Беляковский;Станислав;;26.05.2016 10:28;1@2.ua;3,8068E+11;Social;2;7
927757;Мищенко;Леонид;Иванович;26.05.2016 12:51;1@2.ua;3,80677E+11;Social;3;4
927793;Трофемчук;Сергей;Петрович;28.06.2016 9:52;1@2.ua;3,80975E+11;Social;4;6
927835;бондаренко;геннадий;васильевич;26.05.2016 13:24;1@2.ua;3,80953E+11;Social;5;8
928054;Терещенко;Валерий;Иванович;05.01.2017 12:18;1@2.ua;3,80502E+11;Social;1;5
928126;Вихорь;Сергей;Сергеевич;26.05.2016 15:41;1@2.ua;3,80958E+11;Social;2;7
928669;Буря;Иван;Николаевич;27.05.2016 8:46;1@2.ua;3,80504E+11;Social;3;4
928719;Чуб;Андрей;Григорьевич;27.05.2016 9:38;1@2.ua;3,80663E+11;Social;4;6
928779;сарака;вячеслав;;27.05.2016 13:36;1@2.ua;3,80663E+11;Social;5;8
928799;Дарделла;Роман;;27.05.2016 10:30;1@2.ua;3,80992E+11;Social;1;5
928877;Верезуб;Максим;;12.12.2016 12:33;1@2.ua;3,80961E+11;Social;2;7
928959;Богатыренко;Роман;Викторович;27.05.2016 11:52;1@2.ua;3,80503E+11;Social;3;4
929082;Шатохин;Сергей;;27.05.2016 12:55;1@2.ua;3,80974E+11;Social;4;6
929084;Евтушенко;Евгений;;09.06.2020 9:59;1@2.ua;3,80669E+11;Social;5;8
929147;Перевозник;Андрей;;27.05.2016 14:21;1@2.ua;3,80505E+11;Social;1;5
929641;Гулый;Дмитрий;;27.05.2016 20:19;1@2.ua;3,80955E+11;Social;2;7
929705;гирев;олег;;27.05.2016 22:47;1@2.ua;3,80668E+11;Social;3;4
929783;Галицкий;Юрий;Иванович;28.05.2016 8:57;1@2.ua;3,80952E+11;Social;4;6
929786;Овчинников;Александр;;28.05.2016 9:07;1@2.ua;3,80671E+11;Social;5;8
929788;Работа;Александр;;28.05.2016 9:11;1@2.ua;3,80685E+11;Social;1;5
929850;Мирошник;Богдан;Александрович;27.06.2016 12:00;1@2.ua;3,80967E+11;Social;2;7
929945;Козачук;Александр;;28.05.2016 12:09;1@2.ua;3,8094E+11;Social;3;4
929965;К;Павел;;04.03.2019 23:34;1@2.ua;3,80982E+11;Social;4;6
930167;Березінський;Василь;;28.05.2016 15:31;1@2.ua;3,80989E+11;Social;5;8
930259;Чирикало;Сергій;;28.05.2016 17:50;1@2.ua;3,80976E+11;Social;1;5
930270;Башкатов;Леонид;;28.05.2016 18:10;1@2.ua;3,80675E+11;Social;2;7
930481;Пархоменко;Сергей;;12.02.2019 12:32;1@2.ua;3,80984E+11;Social;3;4
930491;Чуприна;Александр;;29.05.2016 11:17;1@2.ua;3,80979E+11;Social;4;6
930762;Токарев;Антон;;23.06.2019 10:24;1@2.ua;3,80664E+11;Social;5;8
930943;Усенко;Сергей;;30.05.2016 9:29;1@2.ua;3,80505E+11;Social;1;5
930964;Деговец;Юджин;;30.05.2016 9:21;1@2.ua;3,80639E+11;Social;2;7
930982;Боцеля;Валентин;;10.06.2018 23:38;1@2.ua;3,80972E+11;Social;3;4
931005;Царук;Александр;Петрович;30.05.2016 9:47;1@2.ua;3,80507E+11;Social;4;6
931018;Устинов;Сергей;;30.05.2016 15:23;1@2.ua;3,80954E+11;Social;5;8
931215;Слынявый;Александр;;30.05.2016 11:38;1@2.ua;3,80976E+11;Social;1;5
931230;Максимович;Андрей;;30.05.2016 15:41;1@2.ua;3,80975E+11;Social;2;7
931305;Безродный;Александр;;30.05.2016 12:14;1@2.ua;3,80935E+11;Social;3;4
931387;Билинчук;Влад;;30.05.2016 12:46;1@2.ua;3,80972E+11;Social;4;6
931500;Шепетов;Артём;;30.05.2016 13:43;1@2.ua;3,80676E+11;Social;5;8
931509;Балко;Марян;;30.05.2016 13:48;1@2.ua;3,80673E+11;Social;1;5
931642;Дмитрюк;Александр;Владимирович;30.05.2016 14:59;1@2.ua;3,80972E+11;Social;2;7
931979;Турулина;Виктория;;30.05.2016 18:11;1@2.ua;3,80676E+11;Social;3;4
932119;Хлистов;Віталій;;30.05.2016 20:48;1@2.ua;80990650346;Social;4;6
932252;Тачанский;Вадим;;31.05.2016 3:11;1@2.ua;38093848800;Social;5;8
932374;Шпаченко;Виктор;Владимирович;31.05.2016 9:25;1@2.ua;3,80974E+11;Social;1;5
932483;Плескань;Сергей;;31.05.2016 10:18;1@2.ua;3,80975E+11;Social;2;7
932487;Родняный;Василий;;31.05.2016 10:20;1@2.ua;3,80508E+11;Social;3;4
932510;Лифаса;Владимир;;31.05.2016 10:34;1@2.ua;3,80966E+11;Social;4;6
932615;Лукаш;Виталий;;31.05.2016 11:13;1@2.ua;3,80502E+11;Social;5;8
932629;Чуб;Андрей;;31.05.2016 11:18;1@2.ua;3,80505E+11;Social;1;5
932633;Казмирук;Андрей;Петрович;31.05.2016 11:20;1@2.ua;3,80635E+11;Social;2;7
932640;Комисаров;Виктор;;31.05.2016 11:34;1@2.ua;3,80507E+11;Social;3;4
932915;Полторецкий;Вадим;;31.05.2016 15:52;1@2.ua;3,80994E+11;Social;4;6
933019;Белов;Илья;;31.05.2016 14:49;1@2.ua;3,80958E+11;Social;5;8
933066;Капленко;Виталий;;31.05.2016 15:07;1@2.ua;3,80508E+11;Social;1;5
933170;Басок;Сергей;;31.05.2016 15:52;1@2.ua;3,80675E+11;Social;2;7
933243;Лодак;Анатолий;Сергеевич;31.05.2016 16:22;1@2.ua;3,80662E+11;Social;3;4
933299;Ковтун;С.Ю.;;31.05.2016 16:51;1@2.ua;3,80961E+11;Social;4;6
933359;Gafarov;Anar;;31.05.2016 17:23;1@2.ua;9,94552E+11;Social;5;8
933407;Ковтуненко;Игорь;;01.06.2016 15:00;1@2.ua;3,80983E+11;Social;1;5
933972;Денисенко;Юрий;Владимирович;16.06.2016 12:04;1@2.ua;3,80507E+11;Social;2;7
933978;Ясницкий;Дмитрий;;01.06.2016 9:15;1@2.ua;3,80977E+11;Social;3;4
934074;Веркасов;Виктор;Анатольевич;12.07.2016 10:04;1@2.ua;3,80663E+11;Social;4;6
934149;Бражник;Анатолий;Иванович;01.06.2016 11:14;1@2.ua;3,80683E+11;Social;5;8
934275;Онипка;Максим;Николаевич;01.06.2016 12:18;1@2.ua;3,80508E+11;Social;1;5
934326;Гузий;Виктор;;01.06.2016 12:39;1@2.ua;3,80934E+11;Social;2;7
934330;Шрамко;Павел;Николаевич;01.06.2016 12:43;1@2.ua;3,80936E+11;Social;3;4
934335;Василенко;Анатолий;Николаевич;01.06.2016 12:45;1@2.ua;3,80973E+11;Social;4;6
934347;Бондаренко;Виктор;;01.06.2016 12:50;1@2.ua;3,80678E+11;Social;5;8
934358;Сарымсаков;Александр;Борисович;01.06.2016 12:55;1@2.ua;3,80674E+11;Social;1;5
934446;Егоров;Сергей;Владимирович;03.06.2016 17:58;1@2.ua;3,80639E+11;Social;2;7
934683;Рябуха;Ростислав;;01.06.2016 15:31;1@2.ua;3,8095E+11;Social;3;4
934756;Казак;Дмитрий;Ильич;02.06.2016 13:33;1@2.ua;3,80638E+11;Social;4;6
934789;жалкин;Денис;;26.12.2019 12:55;1@2.ua;3,80939E+11;Social;5;8
934887;Ракитов;Борислав;Алексеевич;01.06.2016 17:16;1@2.ua;3,80502E+11;Social;1;5
935264;Бабийчук;Анастасия;Николаевна;02.06.2016 8:32;1@2.ua;3,80972E+11;Social;2;7
935284;Крутяк;Сергей;;02.06.2016 9:00;1@2.ua;3,80995E+11;Social;3;4
935320;Кузьмин;Алексей;;02.06.2016 10:40;1@2.ua;3,80668E+11;Social;4;6
935334;нескородов;евгений;;02.06.2016 9:45;1@2.ua;3,80999E+11;Social;5;8
935408;Басанская;Анна;Дмитриевна;02.06.2016 10:32;1@2.ua;3,80933E+11;Social;1;5
935506;Ерғазиев;Ганибек;;02.06.2016 11:16;1@2.ua;77789004263;Social;2;7
935508;Попов;Дмитрий;Владимирович;02.06.2016 11:19;1@2.ua;3,80506E+11;Social;3;4
935625;Хитриков;Владимир;Андреевич;02.06.2016 12:20;1@2.ua;3,80934E+11;Social;4;6
935774;Ахмедов;Виталий;;02.06.2016 13:46;1@2.ua;3,80664E+11;HR;5;8
935991;Мельников;Александр;;02.06.2016 15:46;1@2.ua;3,80503E+11;HR;1;5
936140;Картавенко;Андрей;Анатольевич;27.06.2016 9:11;1@2.ua;3,8098E+11;HR;2;7
936326;Закладный;Максим;;02.06.2016 21:10;1@2.ua;3,80503E+11;HR;3;4
936362;Лаптев;Иван;;22.06.2016 11:58;1@2.ua;3,80934E+11;HR;4;6
936422;Мормило;Сергей;;03.06.2016 4:46;1@2.ua;3,80993E+11;HR;5;8
936494;Зенов;Алексей;Вячеславович;03.06.2016 9:04;1@2.ua;3,80508E+11;HR;1;5
936503;Скиданов;Дмитрий;;03.06.2016 9:13;1@2.ua;3,80673E+11;HR;2;7
936514;Терещенков;Олег;;03.06.2016 9:21;1@2.ua;3,80938E+11;HR;3;4
936556;Грищенко;Владимир;Валентинович;03.06.2016 9:44;1@2.ua;3,80996E+11;HR;4;6
936632;Радковский;Дмитрий;Юрьевич;03.06.2016 10:50;1@2.ua;3,80984E+11;HR;5;8
936657;Семёнов;Дмитрий;;03.06.2016 10:48;1@2.ua;3,8051E+11;HR;1;5
936804;Шулипов;Максим;;07.07.2020 13:12;1@2.ua;3,80503E+11;HR;2;7
936914;Груднина;Вячеслав;;03.06.2016 12:59;1@2.ua;3,80664E+11;HR;3;4
936932;Ткаченко;Сергей;;03.06.2016 13:09;1@2.ua;3,80991E+11;HR;4;6
936948;Мисержи;Николай;Николаевич;03.06.2016 13:19;1@2.ua;3,80971E+11;HR;5;8
937369;Шевчук;Олександр;;03.06.2016 16:56;1@2.ua;3,80938E+11;HR;1;5
937417;Буравцев;Сергей;Иванович;23.06.2016 14:35;1@2.ua;3,80955E+11;HR;2;7
937442;Гарбуз;Алексей;;03.06.2016 17:34;1@2.ua;3,80952E+11;HR;3;4
937456;Ерченко;Владимир;Олегович;03.06.2016 17:48;1@2.ua;3,80668E+11;HR;4;6
937827;Постоловский;Сергей;;04.06.2016 11:45;1@2.ua;3,00676E+11;HR;5;8
937861;Гайдаржи;Владимир;;26.01.2017 19:29;1@2.ua;;HR;1;5
937865;Якименко;АНАТОЛИЙ;;04.06.2016 12:27;1@2.ua;3,80676E+11;HR;2;7
938028;Онишко;Дмитрий;;04.06.2016 15:35;1@2.ua;30989497979;HR;3;4
938631;Антон;Токарев;;27.11.2016 17:16;1@2.ua;3,80664E+11;HR;4;6
938670;Бажинов;Михаил;;05.06.2016 18:57;1@2.ua;80502693338;HR;5;8
938895;Рачицкий;Виктор;Анатольевич;06.06.2016 9:14;1@2.ua;3,80993E+11;HR;1;5
938920;Коско;Андрей;Влпдимирович;06.06.2016 9:34;1@2.ua;3,80997E+11;HR;2;7
938964;Колесник;Виталий;;06.06.2016 10:00;1@2.ua;3,80668E+11;HR;3;4
939085;Лавренюк;Юрий;Сергеевич;06.06.2016 10:56;1@2.ua;3,80683E+11;HR;4;6
939259;Ермохин;Алексей;;06.06.2016 12:09;1@2.ua;3,80674E+11;HR;5;8
939315;Тараненко;Александр;Анатольевич;06.06.2016 12:35;1@2.ua;3,80501E+11;HR;1;5
939375;Вьюник;Максим;;06.06.2016 13:09;1@2.ua;3,80662E+11;HR;2;7
939410;имагаджиев;з.м;;06.06.2016 13:29;1@2.ua;3,80951E+11;HR;3;4
939449;Гуров;Юрий;Васильевич;06.06.2016 13:51;1@2.ua;3,80502E+11;HR;4;6
939597;Юськив;Дмитрий;;06.06.2016 15:07;1@2.ua;3,80982E+11;HR;5;8
939621;Коваль;Александр;Сергеевич;06.06.2016 15:20;1@2.ua;3,80662E+11;HR;1;5
940378;Сидоров;Александр;Владимирович;07.06.2016 11:08;1@2.ua;3,80969E+11;HR;2;7
940409;Колесник;Владимир;Васильевич;07.06.2016 10:37;1@2.ua;30504725712;HR;3;4
940509;мартинюк;андрей;;07.06.2016 11:36;1@2.ua;3,80662E+11;HR;4;6
940559;Мухин;Виктор;Николаевич;07.06.2016 12:03;1@2.ua;3,8066E+11;HR;5;8
940755;Kovacs;Istvan;;07.06.2016 13:56;1@2.ua;36703198345;HR;1;5
940770;Токарев;Леонид;Павлович;07.06.2016 14:03;1@2.ua;3,80634E+11;HR;2;7
940814;Яворский;Юрий;Ярославович;09.06.2016 12:33;1@2.ua;3,80678E+11;HR;3;4
940949;Демьянец;Олег;Вячеславович;07.06.2016 15:29;1@2.ua;3,80989E+11;HR;4;6
941007;Кожухарь;Роман;;07.06.2016 15:56;1@2.ua;3,80998E+11;HR;5;8
941100;Влезько;Алексей;;07.06.2016 16:49;1@2.ua;3,80976E+11;HR;1;5
941637;Шапир;Андрей;Олегович;08.06.2016 9:29;1@2.ua;3,80664E+11;HR;2;7
941670;Улизько;Александр;;08.06.2016 10:00;1@2.ua;3,80638E+11;HR;3;4
941688;Ярмолюк;Игор;;08.06.2016 10:11;1@2.ua;3,80673E+11;HR;4;6
941725;Гусейнов;Михаил;;08.06.2016 10:35;1@2.ua;3,80954E+11;HR;5;8
942069;Востриков;Андрей;;08.06.2016 11:35;1@2.ua;3,80992E+11;HR;1;5
942096;Юрин;Василий;;08.06.2016 11:46;1@2.ua;3,8067E+11;HR;2;7
942216;Богдан;Дмитрий;;08.06.2016 12:34;1@2.ua;3,80993E+11;HR;3;4
942633;Нахамець;Александр;;08.06.2016 15:57;1@2.ua;3,80635E+11;HR;4;6
942707;Кузьмишкин;Дмитрий;Викторович;08.06.2016 16:35;1@2.ua;3,80982E+11;HR;5;8
943244;Мирошниченко;Александр;;09.06.2016 9:18;1@2.ua;3,80663E+11;HR;1;5
943258;Лысак;Сергей;;09.06.2016 9:31;1@2.ua;3,80662E+11;HR;2;7
943270;Колесник;Дмитрий;Григорьевич;09.06.2016 9:40;1@2.ua;3,80958E+11;HR;3;4
943450;Петрук;Дима;;09.06.2016 11:27;1@2.ua;3,80686E+11;HR;4;6
943607;Вельченко;Александр;;09.06.2016 12:58;1@2.ua;3,80955E+11;HR;5;8
943674;Перескоков;Анатолий;Владимирович;09.06.2016 13:30;1@2.ua;3,80675E+11;HR;1;5
944466;Шевченко;Тарас;Григорьевич;10.06.2016 8:59;1@2.ua;3,8051E+11;HR;2;7
944472;Стрижак;Владислав;Владимирович;10.06.2016 9:21;1@2.ua;3,8069E+11;HR;3;4
944479;Тимошенко;Владимир;;10.06.2016 9:24;1@2.ua;3,80986E+11;HR;4;6
944490;Тимофеев;Антон;;10.06.2016 9:29;1@2.ua;3,80675E+11;HR;5;8
944502;Мужичук;Олег;Александрович;14.06.2016 9:12;1@2.ua;3,8099E+11;HR;1;5
944529;Сергеев;Вадим;Юрьевич;11.11.2016 11:45;1@2.ua;3,80663E+11;HR;2;7
944562;Дороженко;Вадим;;10.06.2016 10:23;1@2.ua;3,80675E+11;HR;3;4
944612;Зоренко;Николай;;10.06.2016 11:04;1@2.ua;3,80993E+11;HR;4;6
944660;Тынкован;Алексей;Владимирович;10.06.2016 11:35;1@2.ua;3,80931E+11;HR;5;8
944708;Жечков;Пётр;;10.06.2016 11:52;1@2.ua;3,80632E+11;HR;1;5
944903;Перканюк;Олег;;10.06.2016 13:45;1@2.ua;3,80965E+11;HR;2;7
945085;Воловод;Андрей;;10.06.2016 15:54;1@2.ua;3,80669E+11;HR;3;4
945129;Шаперчук;Степан;;10.06.2016 16:24;1@2.ua;3,80676E+11;HR;4;6
945130;Профатыло;Александр;Иванович;25.04.2017 9:21;1@2.ua;3,80675E+11;HR;5;8
945145;Фесенко;Сергей;Петрович;25.07.2018 16:19;1@2.ua;3,80505E+11;HR;1;5
945370;Савенков;Алексей;Анатольевич;13.06.2016 15:13;1@2.ua;80676302100;HR;2;7
945466;Плаксивый;Александр;;11.06.2016 9:10;1@2.ua;3,80966E+11;HR;3;4
945471;Серокуров;Дмитрий;Александрович;11.06.2016 9:25;1@2.ua;3,8067E+11;HR;4;6
945507;Страшнов;Евгений;Александрович;11.06.2016 10:17;1@2.ua;3,80966E+11;Marketing;5;8
945566;Гордиенко;Сергей;Николаевич;11.06.2016 11:18;1@2.ua;3,80503E+11;Marketing;1;5
945720;Заболотний;Игорь;Иванович;11.06.2016 14:03;1@2.ua;3,80676E+11;Marketing;2;7
946106;Кравцов;Руслан;;12.06.2016 12:30;1@2.ua;3,80968E+11;Marketing;3;4
946293;Касаев;Степан;;12.06.2016 19:37;1@2.ua;3,80095E+11;Marketing;4;6
946429;Хиттини;Рафат;;13.06.2016 9:32;1@2.ua;3,80934E+11;Marketing;5;8
946439;Чайка;Алексей;Владимирович;13.06.2016 9:49;1@2.ua;3,80953E+11;Marketing;1;5
946440;Нелепа;Александр;;13.06.2016 9:53;1@2.ua;3,80662E+11;Marketing;2;7
946469;Зеленюх;Александр;Михайлович;13.06.2016 10:35;1@2.ua;3,8098E+11;Marketing;3;4
946501;Михайлык;Вадим;Иванович;13.06.2016 11:06;1@2.ua;3,80502E+11;Marketing;4;6
946566;Перебора;Олег;Анатольевич;13.06.2016 12:24;1@2.ua;3,80679E+11;Marketing;5;8
946573;Шубин;Игорь;;13.06.2016 12:33;1@2.ua;3,80971E+11;Marketing;1;5
946609;Демченко;Виталий;Иванович;13.06.2016 13:14;1@2.ua;3,80978E+11;Marketing;2;7
946626;Кожевников;Владимир;;13.06.2016 13:26;1@2.ua;3,80634E+11;Marketing;3;4
946639;Кириленко;Александр;Владимирович;13.06.2016 13:39;1@2.ua;3,80972E+11;Marketing;4;6
946661;семёнов;олег;валерьевич;13.06.2016 14:08;1@2.ua;3,80994E+11;Marketing;5;8
946731;Гришилов;Геннадий;;13.06.2016 16:04;1@2.ua;3,80665E+11;Marketing;1;5
946745;Демьянец;Олег;;13.06.2016 16:38;1@2.ua;3,81E+11;Marketing;2;7
946757;Перерва;Валентин;Викторович;15.06.2016 17:09;1@2.ua;3,8067E+11;Marketing;3;4
946795;Липа;Богдан;Николаевич;13.06.2016 17:52;1@2.ua;3,8099E+11;Marketing;4;6
946952;Желавский;Александр;;29.06.2016 15:55;1@2.ua;3,80679E+11;Marketing;5;8
947044;Вальпуцкий;Леонид;;14.06.2016 8:59;1@2.ua;3,8097E+11;Marketing;1;5
947090;Денисюк;Роман;;09.03.2020 11:37;1@2.ua;3,80735E+11;Marketing;2;7
947340;Ковальчук;Александр;Григорьевич;14.06.2016 11:52;1@2.ua;3,80638E+11;Marketing;3;4
947382;Польский;Дмитрий;Михайлович;11.11.2016 12:28;1@2.ua;3,80955E+11;Marketing;4;6
947601;Терёхин;Виталий;Леонидович;23.06.2016 12:03;1@2.ua;3,80667E+11;Marketing;5;8
947695;Шевченко;Евгений;Николаевич;24.10.2016 16:00;1@2.ua;3,80689E+11;Marketing;1;5
947982;Мазур;Олег;Алексеевич;14.06.2016 17:48;1@2.ua;3,80993E+11;Marketing;2;7
948000;Вербицкий;Дмитрий;Борисович;14.06.2016 18:00;1@2.ua;3,8051E+11;Marketing;3;4
948001;Туркот;Юрий;Валерьевич;14.06.2016 18:01;1@2.ua;3,8068E+11;Marketing;4;6
948184;Седых;Антон;Игориевич;14.06.2016 22:50;1@2.ua;3,80666E+11;Marketing;5;8
948367;Гавриш;Юлия;;27.09.2016 9:34;1@2.ua;3,80958E+11;Marketing;1;5
948672;Бублик;Александр;;15.06.2016 12:24;1@2.ua;3,80972E+11;Marketing;2;7
948697;Тарасенко;Александр;;19.05.2020 10:25;1@2.ua;3,80996E+11;Marketing;3;4
948795;Вьюненко;Олег;;15.06.2016 13:27;1@2.ua;3,80684E+11;Marketing;4;6
948859;Яценко;Александр;Викторович;15.06.2016 14:04;1@2.ua;3,80504E+11;Marketing;5;8
948927;Заинчковский;Андрей;Иванович;15.06.2016 14:32;1@2.ua;3,80678E+11;Marketing;1;5
949187;OOO;МАШГИДРОПРИВОД;;15.06.2016 16:59;1@2.ua;3,80503E+11;Marketing;2;7
949411;Целинко;Александр;;15.06.2016 21:00;1@2.ua;3,80508E+11;Marketing;3;4
949675;Яковлев;Роман;;16.06.2016 9:20;1@2.ua;3,80676E+11;Marketing;4;6
949686;Макаринский;Дмитрий;;16.06.2016 9:25;1@2.ua;3,80964E+11;Marketing;5;8
949744;Болеста;Ростислав;Романович;16.06.2016 10:14;1@2.ua;3,80679E+11;Marketing;1;5
949749;Балабушко;Александр;;16.06.2016 10:16;1@2.ua;3,80676E+11;Marketing;2;7
949975;Муштай;Сергей;Константинович;12.12.2016 10:17;1@2.ua;3,80669E+11;Marketing;3;4
950138;Белецкий;Андрей;;17.06.2016 15:05;1@2.ua;3,80676E+11;Marketing;4;6
950217;Немоловский;Виталий;;16.06.2016 14:38;1@2.ua;3,80667E+11;Marketing;5;8
950312;Крикун;Николай;Юрьевич;16.06.2016 15:10;1@2.ua;3,80673E+11;Marketing;1;5
950410;Кокитко;Игорь;;16.06.2016 16:24;1@2.ua;3,80971E+11;Marketing;2;7
951115;Костюк;Евгений;;17.06.2016 12:16;1@2.ua;3,80505E+11;Marketing;3;4
951187;Баранник;Сергей;Владимирович;17.06.2016 13:04;1@2.ua;3,80503E+11;Marketing;4;6
951216;Свобода;Александр;Викторович;17.06.2016 13:23;1@2.ua;3,80663E+11;Marketing;5;8
951484;Баранец;Олег;Васильевич;17.06.2016 16:14;1@2.ua;3,80675E+11;Marketing;1;5
952000;Базилевский;Вадим;;18.06.2016 11:35;1@2.ua;3,80963E+11;Marketing;2;7
952079;Титаренко;Евгений;Петрович;18.06.2016 13:04;1@2.ua;3,8068E+11;Marketing;3;4
952122;Мягкоголов;Сергей;Иванович;18.06.2016 13:46;1@2.ua;3,80989E+11;Marketing;4;6
952157;Сирку;Андрій;;22.06.2016 17:28;1@2.ua;3,80634E+11;Marketing;5;8
952486;Четверик;Максим;Сергеевич;19.06.2016 10:00;1@2.ua;3,80638E+11;Marketing;1;5
953009;Тютинник;Юлия;;20.06.2016 9:11;1@2.ua;3,80997E+11;Marketing;2;7
953176;Кравцов;Павел;;20.06.2016 10:55;1@2.ua;3,8094E+11;Marketing;3;4
955581;Поповская;Любовь;Григорьевна;20.07.2016 11:34;1@2.ua;3,80507E+11;Marketing;4;6
955588;Константин;Skoda;;21.06.2016 14:05;1@2.ua;3,80996E+11;Marketing;5;8
955598;Власюк;Петр;;21.06.2016 14:08;1@2.ua;3,80986E+11;Marketing;1;5
955601;Железняк;Василий;Васильевич;21.06.2016 14:09;1@2.ua;3,80958E+11;Marketing;2;7
955614;Стронов;Дмитрий;;02.08.2019 14:45;1@2.ua;3,80636E+11;Marketing;3;4
955623;Москаленко;Олег;Валентинович;12.07.2016 17:57;1@2.ua;3,80631E+11;Marketing;4;6
955628;Одинец;Владислав;Владимирович;21.06.2016 14:22;1@2.ua;3,80677E+11;Marketing;5;8
955630;Гуревой;Денис;Сергеевич;21.06.2016 14:23;1@2.ua;3,80505E+11;Marketing;1;5
955633;Белянский;Сергей;Викторович;21.06.2016 14:25;1@2.ua;3,80506E+11;Marketing;2;7
955635;Ширяев;Максим;Леонидович;24.06.2016 9:11;1@2.ua;3,80677E+11;Marketing;3;4
955652;Дементий;сергей;Викторович;21.06.2016 14:33;1@2.ua;3,80975E+11;Marketing;4;6
955655;Баранов;Николай;;21.06.2016 14:33;1@2.ua;3,8068E+11;Marketing;5;8
955686;Алексеенко;Максим;;21.06.2016 14:47;1@2.ua;3,80675E+11;Marketing;1;5
955704;Реута;Александр;Анатольевич;21.06.2016 15:00;1@2.ua;3,80665E+11;Marketing;2;7
955742;Прокопенко;Евгений;;21.06.2016 15:21;1@2.ua;3,80631E+11;Marketing;3;4
955865;Гречко;Роман;Васильевич;21.06.2016 16:37;1@2.ua;3,80679E+11;Marketing;4;6
955985;Тимонник;Руслан;Михайлович;21.06.2016 17:54;1@2.ua;3,8051E+11;Marketing;5;8
956363;Вильховый;Роман;Васильевич;22.06.2016 9:13;1@2.ua;3,80975E+11;Marketing;1;5
956387;Скрыгонюк;Алексей;;22.06.2016 9:39;1@2.ua;3,80668E+11;Marketing;2;7
956401;Фесик;Сергей;Михайлович;29.06.2016 17:01;1@2.ua;3,80679E+11;Marketing;3;4
956414;Балаба;Андрей;;22.06.2016 10:01;1@2.ua;3,80672E+11;Marketing;4;6
956509;Серёгин;Алексей;Дмитриевич;22.06.2016 11:03;1@2.ua;3,80998E+11;Marketing;5;8
956646;Якаба;Михаил;;22.06.2016 12:16;1@2.ua;3,80953E+11;Marketing;1;5
956650;Яценко;Алексей;;22.06.2016 12:17;1@2.ua;3,80634E+11;Marketing;2;7
956702;Сюбар;Богдан;;22.06.2016 13:18;1@2.ua;3,80676E+11;Marketing;3;4
956726;Паныло;Андрей;;22.06.2016 13:00;1@2.ua;3,8095E+11;Marketing;4;6
956829;Перепелица;Руслан;Владимирович;22.06.2016 14:03;1@2.ua;3,80977E+11;Marketing;5;8
956977;Курбанов;Игорь;;22.06.2016 15:30;1@2.ua;3,80671E+11;Marketing;1;5
957108;Пинчук;Артем;Васильович;22.06.2016 17:00;1@2.ua;3,80688E+11;Marketing;2;7
957129;Великий;Сергей;Анатольевич;22.06.2016 17:14;1@2.ua;3,80997E+11;Marketing;3;3
957571;Герасименко;Виталий;Дмитриевич;23.06.2016 9:27;1@2.ua;3,80972E+11;Marketing;4;4
957613;Гузименко;Вячеслав;;23.09.2016 11:17;1@2.ua;3,80508E+11;Marketing;5;5
957638;Солянник;Дмитрий;;26.01.2017 11:06;1@2.ua;3,8051E+11;Marketing;1;1
957663;Фисенков;Денис;;23.06.2016 10:21;1@2.ua;3,80508E+11;Marketing;2;2
957707;Бренюк;Александр;Анатольевич;23.06.2016 10:41;1@2.ua;3,80673E+11;Marketing;3;3
958133;Зеленов;Игорь;Иванович;23.06.2016 14:12;1@2.ua;3,80935E+11;Marketing;4;4
958148;Жихарев;Валерий;Валентинович;23.06.2016 14:21;1@2.ua;3,805E+11;Marketing;5;5
958322;Ципивко;Евгений;Сергеевич;23.06.2016 16:05;1@2.ua;3,80997E+11;Marketing;1;1
958398;Нарижный;Юрий;Александрович;23.06.2016 16:54;1@2.ua;3,80683E+11;Marketing;2;2
958409;Покуц;Евгений;;23.06.2016 17:05;1@2.ua;3,80664E+11;Marketing;3;3
958416;бабраков;Виктор;Алексеевич;23.06.2016 17:13;1@2.ua;3,80506E+11;Marketing;4;4
958438;Судай;Сергей;Владимирович;23.06.2016 17:25;1@2.ua;3,80979E+11;Marketing;5;5
